{
    "_id": "i6t819VnEr1ESCAd",
    "data": {
        "abilities": {
            "cha": {
                "mod": 6
            },
            "con": {
                "mod": 6
            },
            "dex": {
                "mod": 4
            },
            "int": {
                "mod": 4
            },
            "str": {
                "mod": 9
            },
            "wis": {
                "mod": 6
            }
        },
        "attributes": {
            "ac": {
                "details": "",
                "value": 42
            },
            "allSaves": {
                "value": "+1 status to all saves vs. magic"
            },
            "hp": {
                "details": "",
                "max": 350,
                "temp": 0,
                "value": 350
            },
            "initiative": {
                "ability": "perception"
            },
            "perception": {
                "value": 32
            },
            "shield": {
                "ac": 0,
                "brokenThreshold": 0,
                "hardness": 0,
                "max": 0,
                "value": 0
            },
            "speed": {
                "otherSpeeds": [
                    {
                        "label": "Fly",
                        "type": "fly",
                        "value": "40"
                    }
                ],
                "value": "40"
            }
        },
        "details": {
            "alignment": {
                "value": "CE"
            },
            "creatureType": "",
            "flavorText": "<p>Juggernauts of destruction, vavakias are formed from the souls of mortals who extract, enslave, or consume the souls of others.</p>",
            "level": {
                "value": 18
            },
            "source": {
                "value": "Pathfinder #156: The Apocalypse Prophet"
            }
        },
        "resources": {},
        "saves": {
            "fortitude": {
                "saveDetail": "",
                "value": 32
            },
            "reflex": {
                "saveDetail": "",
                "value": 28
            },
            "will": {
                "saveDetail": "",
                "value": 30
            }
        },
        "traits": {
            "ci": [],
            "di": {
                "custom": "",
                "value": []
            },
            "dr": [],
            "dv": [
                {
                    "label": "Cold Iron",
                    "type": "coldiron",
                    "value": "15"
                },
                {
                    "label": "Good",
                    "type": "good",
                    "value": "15"
                }
            ],
            "languages": {
                "custom": "Telepathy 100 feet",
                "selected": [],
                "value": [
                    "abyssal",
                    "celestial",
                    "draconic",
                    "custom"
                ]
            },
            "rarity": {
                "value": "uncommon"
            },
            "senses": {
                "value": "darkvision, true seeing"
            },
            "size": {
                "value": "huge"
            },
            "traits": {
                "custom": "",
                "value": [
                    "demon",
                    "fiend"
                ]
            }
        }
    },
    "effects": [],
    "flags": {},
    "img": "systems/pf2e/icons/default-icons/npc.svg",
    "items": [
        {
            "_id": "9kv8fbHEQiC1Wm6G",
            "data": {
                "ability": {
                    "value": "cha"
                },
                "autoHeightenLevel": {
                    "value": null
                },
                "description": {
                    "value": ""
                },
                "displayLevels": {},
                "prepared": {
                    "value": "innate"
                },
                "proficiency": {
                    "value": 0
                },
                "rules": [],
                "showSlotlessLevels": {
                    "value": true
                },
                "showUnpreparedSpells": {
                    "value": true
                },
                "signatureSpells": {
                    "value": []
                },
                "slots": {
                    "slot0": {
                        "max": 0,
                        "prepared": [],
                        "value": 0
                    },
                    "slot1": {
                        "max": 0,
                        "prepared": [],
                        "value": 0
                    },
                    "slot10": {
                        "max": 0,
                        "prepared": [],
                        "value": 0
                    },
                    "slot11": {
                        "max": 0,
                        "prepared": [],
                        "value": 0
                    },
                    "slot2": {
                        "max": 0,
                        "prepared": [],
                        "value": 0
                    },
                    "slot3": {
                        "max": 0,
                        "prepared": [],
                        "value": 0
                    },
                    "slot4": {
                        "max": 0,
                        "prepared": [],
                        "value": 0
                    },
                    "slot5": {
                        "max": 0,
                        "prepared": [],
                        "value": 0
                    },
                    "slot6": {
                        "max": 0,
                        "prepared": [],
                        "value": 0
                    },
                    "slot7": {
                        "max": 0,
                        "prepared": [],
                        "value": 0
                    },
                    "slot8": {
                        "max": 0,
                        "prepared": [],
                        "value": 0
                    },
                    "slot9": {
                        "max": 0,
                        "prepared": [],
                        "value": 0
                    }
                },
                "slug": null,
                "source": {
                    "value": ""
                },
                "spelldc": {
                    "dc": 40,
                    "mod": 0,
                    "value": 32
                },
                "tradition": {
                    "value": "divine"
                },
                "traits": {
                    "custom": "",
                    "rarity": {
                        "value": "common"
                    },
                    "value": []
                }
            },
            "effects": [],
            "flags": {},
            "img": "systems/pf2e/icons/default-icons/spellcastingEntry.svg",
            "name": "Divine Innate Spells",
            "sort": 100000,
            "type": "spellcastingEntry"
        },
        {
            "_id": "3gjhAW9ZvHGVA54s",
            "data": {
                "ability": {
                    "value": "cha"
                },
                "autoHeightenLevel": {
                    "value": null
                },
                "description": {
                    "value": ""
                },
                "displayLevels": {},
                "prepared": {
                    "value": "ritual"
                },
                "proficiency": {
                    "value": 0
                },
                "rules": [],
                "showSlotlessLevels": {
                    "value": true
                },
                "showUnpreparedSpells": {
                    "value": true
                },
                "signatureSpells": {
                    "value": []
                },
                "slots": {
                    "slot0": {
                        "max": 0,
                        "prepared": [],
                        "value": 0
                    },
                    "slot1": {
                        "max": 0,
                        "prepared": [],
                        "value": 0
                    },
                    "slot10": {
                        "max": 0,
                        "prepared": [],
                        "value": 0
                    },
                    "slot11": {
                        "max": 0,
                        "prepared": [],
                        "value": 0
                    },
                    "slot2": {
                        "max": 0,
                        "prepared": [],
                        "value": 0
                    },
                    "slot3": {
                        "max": 0,
                        "prepared": [],
                        "value": 0
                    },
                    "slot4": {
                        "max": 0,
                        "prepared": [],
                        "value": 0
                    },
                    "slot5": {
                        "max": 0,
                        "prepared": [],
                        "value": 0
                    },
                    "slot6": {
                        "max": 0,
                        "prepared": [],
                        "value": 0
                    },
                    "slot7": {
                        "max": 0,
                        "prepared": [],
                        "value": 0
                    },
                    "slot8": {
                        "max": 0,
                        "prepared": [],
                        "value": 0
                    },
                    "slot9": {
                        "max": 0,
                        "prepared": [],
                        "value": 0
                    }
                },
                "slug": null,
                "source": {
                    "value": ""
                },
                "spelldc": {
                    "dc": 40,
                    "mod": 0,
                    "value": 32
                },
                "tradition": {
                    "value": ""
                },
                "traits": {
                    "custom": "",
                    "rarity": {
                        "value": "common"
                    },
                    "value": []
                }
            },
            "effects": [],
            "flags": {},
            "img": "systems/pf2e/icons/default-icons/spellcastingEntry.svg",
            "name": "Rituals",
            "sort": 200000,
            "type": "spellcastingEntry"
        },
        {
            "_id": "beHOpuYgHPDE3W0F",
            "data": {
                "ability": {
                    "value": ""
                },
                "area": {
                    "areaType": "",
                    "value": null
                },
                "areasize": {
                    "value": "60-foot line"
                },
                "autoHeightenLevel": {
                    "value": null
                },
                "category": {
                    "value": "spell"
                },
                "components": {
                    "focus": false,
                    "material": false,
                    "somatic": true,
                    "verbal": true
                },
                "cost": {
                    "value": ""
                },
                "damage": {
                    "value": {
                        "0": {
                            "type": {
                                "categories": [],
                                "value": "negative"
                            },
                            "value": "9d6"
                        }
                    }
                },
                "description": {
                    "value": "<p>You unleash a wave of necromantic energy to snuff out the life force of those in its path. Each living creature of 17th level or lower in the line must attempt a Fortitude save. If the damage from massacre reduces a creature to 0 Hit Points, that creature dies instantly. If massacre doesn't kill even a single creature, the negative energy violently explodes back toward you, dealing an additional 30 negative damage to every living creature in the line (even those above 17th level) and 30 negative damage to you.</p>\n<hr />\n<p><strong>Critical Success</strong> The creature is unaffected.</p>\n<p><strong>Success</strong> The creature takes 9d6 negative damage.</p>\n<p><strong>Failure</strong> The creature takes 100 negative damage.</p>\n<p><strong>Critical Failure</strong> The creature dies.</p>\n<hr />\n<p><strong>Heightened (10th)</strong> The spell can affect living creatures up to 19th level. Increase the damage to 10d6 on a success, and to 115 on a failure.</p>"
                },
                "duration": {
                    "value": ""
                },
                "hasCounteractCheck": {
                    "value": false
                },
                "heightenedLevel": {
                    "value": 9
                },
                "level": {
                    "value": 9
                },
                "location": {
                    "value": "9kv8fbHEQiC1Wm6G"
                },
                "materials": {
                    "value": ""
                },
                "prepared": {
                    "value": ""
                },
                "primarycheck": {
                    "value": ""
                },
                "range": {
                    "value": ""
                },
                "rules": [],
                "save": {
                    "basic": "",
                    "value": "fortitude"
                },
                "school": {
                    "value": "necromancy"
                },
                "secondarycasters": {
                    "value": ""
                },
                "secondarycheck": {
                    "value": ""
                },
                "slug": "massacre",
                "source": {
                    "value": ""
                },
                "spellType": {
                    "value": "save"
                },
                "sustained": {
                    "value": false
                },
                "target": {
                    "value": ""
                },
                "time": {
                    "value": "2"
                },
                "traditions": {
                    "value": [
                        "arcane",
                        "divine",
                        "primal"
                    ]
                },
                "traits": {
                    "custom": "",
                    "rarity": {
                        "value": "common"
                    },
                    "value": [
                        "death",
                        "negative"
                    ]
                }
            },
            "effects": [],
            "flags": {
                "core": {
                    "sourceId": "Compendium.pf2e.spells-srd.10VcmSYNBrvBphu1"
                }
            },
            "img": "systems/pf2e/icons/spells/massacre.webp",
            "name": "Massacre",
            "sort": 300000,
            "type": "spell"
        },
        {
            "_id": "ulc1zRbIeA2T7gLc",
            "data": {
                "ability": {
                    "value": ""
                },
                "area": {
                    "areaType": "",
                    "value": null
                },
                "areasize": {
                    "value": "10-foot emanation"
                },
                "autoHeightenLevel": {
                    "value": null
                },
                "category": {
                    "value": "spell"
                },
                "components": {
                    "focus": false,
                    "material": false,
                    "somatic": true,
                    "verbal": true
                },
                "cost": {
                    "value": ""
                },
                "damage": {
                    "value": {}
                },
                "description": {
                    "value": "<p>Divine power wards the targets, granting each a +1 status bonus to AC and saves while in the area.</p>\n<p>Choose an alignment your deity has (chaotic, evil, good, or lawful). You can't cast this spell if you don't have a deity or your deity is true neutral. This spell gains the trait of the alignment you chose. The bonuses granted by the spell increase to +2 against attacks by-and effects created by-creatures with an alignment opposite to the spell (lawful if you chose chaotic, evil if you chose good). These bonuses increase to +4 against effects created by such creatures that attempt to impose the @Compendium[pf2e.conditionitems.Controlled]{Controlled} condition on a target of your divine aura, as well as against attacks made by creatures summoned by anything opposite in alignment to your divine aura.</p>\n<p>When a creature of opposite alignment hits a target with a melee attack, the creature must succeed at a Will save or be @Compendium[pf2e.conditionitems.Blinded]{Blinded} for 1 minute. It's then temporarily immune for 1 minute.</p>\n<p>The first time you Sustain the Spell each round, the divine aura's radius grows 10 feet.</p>"
                },
                "duration": {
                    "value": "sustained up to 1 minute"
                },
                "hasCounteractCheck": {
                    "value": false
                },
                "heightenedLevel": {
                    "value": 8
                },
                "level": {
                    "value": 8
                },
                "location": {
                    "value": "9kv8fbHEQiC1Wm6G"
                },
                "materials": {
                    "value": ""
                },
                "prepared": {
                    "value": ""
                },
                "primarycheck": {
                    "value": ""
                },
                "range": {
                    "value": ""
                },
                "rules": [],
                "save": {
                    "basic": "",
                    "value": ""
                },
                "school": {
                    "value": "abjuration"
                },
                "secondarycasters": {
                    "value": ""
                },
                "secondarycheck": {
                    "value": ""
                },
                "slug": "divine-aura",
                "source": {
                    "value": ""
                },
                "spellType": {
                    "value": "utility"
                },
                "sustained": {
                    "value": false
                },
                "target": {
                    "value": "allies in the area"
                },
                "time": {
                    "value": "2"
                },
                "traditions": {
                    "value": [
                        "divine"
                    ]
                },
                "traits": {
                    "custom": "",
                    "rarity": {
                        "value": "common"
                    },
                    "value": []
                }
            },
            "effects": [],
            "flags": {
                "core": {
                    "sourceId": "Compendium.pf2e.spells-srd.nsQvjNyg4Whw2mek"
                }
            },
            "img": "systems/pf2e/icons/spells/divine-aura.webp",
            "name": "Divine Aura",
            "sort": 400000,
            "type": "spell"
        },
        {
            "_id": "Jhf8RRQbOUZkqp1r",
            "data": {
                "ability": {
                    "value": ""
                },
                "area": {
                    "areaType": "",
                    "value": null
                },
                "areasize": {
                    "value": "60-foot burst"
                },
                "autoHeightenLevel": {
                    "value": null
                },
                "category": {
                    "value": "spell"
                },
                "components": {
                    "focus": false,
                    "material": false,
                    "somatic": true,
                    "verbal": true
                },
                "cost": {
                    "value": ""
                },
                "damage": {
                    "value": {
                        "0": {
                            "type": {
                                "categories": [],
                                "value": "bludgeoning"
                            },
                            "value": "11d6"
                        }
                    }
                },
                "description": {
                    "value": "<p>You shake the ground, topple creatures into fissures, and collapse structures. The GM might add additional effects in certain areas. Cliffs might collapse, causing creatures to fall, or a lake might drain as fissures open up below its surface, leaving a morass of quicksand.</p>\n<ul>\n<li><strong>Shaking Ground</strong> The ground is difficult terrain, and creatures on it take a -2 circumstance penalty to attack rolls, AC, and skill checks.</li>\n<li><strong>Fissures</strong> Each creature on the ground must attempt a Reflex save at the start of its turn to keep its footing and avoid falling into 40-foot-deep fissures that open beneath it. The fissures are permanent, and their sides require successful DC 15 Athletics to Climb.</li>\n<li><strong>Collapse</strong> Structures and ceilings might collapse. The GM rolls a flat check for each (DC 16 for a sturdy structure, DC 14 for an average structure and most natural formations, DC 9 for a shoddy structure, all adjusted higher or lower as the GM sees fit). A collapse deals 11d6 bludgeoning damage; each creature caught in a collapse must attempt a Reflex save to avoid it.</li>\n</ul>\n<hr />\n<p><strong>Critical Success</strong> The creature takes half the collapse damage.</p>\n<p><strong>Success</strong> The creature takes half the collapse damage and falls @Compendium[pf2e.conditionitems.Prone]{Prone}.</p>\n<p><strong>Failure</strong> The creature takes the full collapse damage and falls Prone.</p>\n<p><strong>Critical Failure</strong> The creature takes the full collapse damage and falls into a fissure.</p>\n<hr />\n<p><strong>Heightened (10th)</strong> You create a massive earthquake that can devastate a settlement. The range increases to half a mile and the area to a quarter-mile burst.</p>"
                },
                "duration": {
                    "value": "1 round"
                },
                "hasCounteractCheck": {
                    "value": false
                },
                "heightenedLevel": {
                    "value": 8
                },
                "level": {
                    "value": 8
                },
                "location": {
                    "value": "9kv8fbHEQiC1Wm6G"
                },
                "materials": {
                    "value": ""
                },
                "prepared": {
                    "value": ""
                },
                "primarycheck": {
                    "value": ""
                },
                "range": {
                    "value": "500 feet"
                },
                "rules": [],
                "save": {
                    "basic": "",
                    "value": "reflex"
                },
                "school": {
                    "value": "evocation"
                },
                "secondarycasters": {
                    "value": ""
                },
                "secondarycheck": {
                    "value": ""
                },
                "slug": "earthquake",
                "source": {
                    "value": ""
                },
                "spellType": {
                    "value": "utility"
                },
                "sustained": {
                    "value": false
                },
                "target": {
                    "value": ""
                },
                "time": {
                    "value": "2"
                },
                "traditions": {
                    "value": [
                        "arcane",
                        "primal"
                    ]
                },
                "traits": {
                    "custom": "",
                    "rarity": {
                        "value": "common"
                    },
                    "value": [
                        "earth"
                    ]
                }
            },
            "effects": [],
            "flags": {
                "core": {
                    "sourceId": "Compendium.pf2e.spells-srd.x7SPrsRxGb2Vy2nu"
                }
            },
            "img": "systems/pf2e/icons/spells/earthquake.webp",
            "name": "Earthquake",
            "sort": 500000,
            "type": "spell"
        },
        {
            "_id": "9oNWJPgGoBlUvMBH",
            "data": {
                "ability": {
                    "value": ""
                },
                "area": {
                    "areaType": "",
                    "value": null
                },
                "areasize": {
                    "value": ""
                },
                "autoHeightenLevel": {
                    "value": null
                },
                "category": {
                    "value": "spell"
                },
                "components": {
                    "focus": false,
                    "material": false,
                    "somatic": false,
                    "verbal": true
                },
                "cost": {
                    "value": ""
                },
                "damage": {
                    "value": {}
                },
                "description": {
                    "value": "<p>You stun the target with an arcane word of power. Once targeted, the target is then temporarily immune for 10 minutes.</p>\n<p>The effect of the spell depends on the target's level.</p>\n<ul>\n<li><strong>13th or Lower</strong> The target is @Compendium[pf2e.conditionitems.Stunned]{Stunned} for [[/r 1d6 #rounds]]{1d6 rounds}.</li>\n<li><strong>14th-15th</strong> The target is Stunned for 1 round.</li>\n<li><strong>16th or Higher</strong> The target is @Compendium[pf2e.conditionitems.Stunned]{Stunned 1}.</li>\n</ul>\n<hr />\n<p><strong>Heightened (+1)</strong> The levels at which each outcome applies increase by 2.</p>"
                },
                "duration": {
                    "value": "varies"
                },
                "hasCounteractCheck": {
                    "value": false
                },
                "heightenedLevel": {
                    "value": 9
                },
                "level": {
                    "value": 8
                },
                "location": {
                    "value": "9kv8fbHEQiC1Wm6G"
                },
                "materials": {
                    "value": ""
                },
                "prepared": {
                    "value": ""
                },
                "primarycheck": {
                    "value": ""
                },
                "range": {
                    "value": "30 feet"
                },
                "rules": [],
                "save": {
                    "basic": "",
                    "value": ""
                },
                "school": {
                    "value": "enchantment"
                },
                "secondarycasters": {
                    "value": ""
                },
                "secondarycheck": {
                    "value": ""
                },
                "slug": "power-word-stun",
                "source": {
                    "value": ""
                },
                "spellType": {
                    "value": "utility"
                },
                "sustained": {
                    "value": false
                },
                "target": {
                    "value": "1 creature"
                },
                "time": {
                    "value": "1"
                },
                "traditions": {
                    "value": [
                        "arcane"
                    ]
                },
                "traits": {
                    "custom": "",
                    "rarity": {
                        "value": "uncommon"
                    },
                    "value": [
                        "auditory",
                        "mental"
                    ]
                }
            },
            "effects": [],
            "flags": {
                "core": {
                    "sourceId": "Compendium.pf2e.spells-srd.7PJSqUeKxTqOVrPk"
                }
            },
            "img": "systems/pf2e/icons/spells/power-word-stun.webp",
            "name": "Power Word Stun",
            "sort": 600000,
            "type": "spell"
        },
        {
            "_id": "GxQZGaWODYEgQs6A",
            "data": {
                "ability": {
                    "value": ""
                },
                "area": {
                    "areaType": "",
                    "value": ""
                },
                "areasize": {
                    "value": ""
                },
                "autoHeightenLevel": {
                    "value": null
                },
                "category": {
                    "value": "spell"
                },
                "components": {
                    "focus": false,
                    "material": false,
                    "somatic": true,
                    "verbal": true
                },
                "cost": {
                    "value": ""
                },
                "damage": {
                    "value": {}
                },
                "description": {
                    "value": "<p>You see things within 60 feet as they actually are. The GM rolls a secret counteract check against any illusion or transmutation in the area, but only for the purpose of determining whether you see through it (for instance, if the check succeeds against a polymorph spell, you can see the creature's true form, but you don't end the polymorph spell).</p>"
                },
                "duration": {
                    "value": "10 minutes"
                },
                "hasCounteractCheck": {
                    "value": true
                },
                "heightenedLevel": {
                    "value": 9
                },
                "level": {
                    "value": 6
                },
                "location": {
                    "value": "9kv8fbHEQiC1Wm6G"
                },
                "materials": {
                    "value": ""
                },
                "prepared": {
                    "value": ""
                },
                "primarycheck": {
                    "value": ""
                },
                "range": {
                    "value": ""
                },
                "rules": [],
                "save": {
                    "basic": "",
                    "value": ""
                },
                "school": {
                    "value": "divination"
                },
                "secondarycasters": {
                    "value": ""
                },
                "secondarycheck": {
                    "value": ""
                },
                "slug": "true-seeing",
                "source": {
                    "value": ""
                },
                "spellType": {
                    "value": "utility"
                },
                "sustained": {
                    "value": false
                },
                "target": {
                    "value": ""
                },
                "time": {
                    "value": "2"
                },
                "traditions": {
                    "value": [
                        "arcane",
                        "divine",
                        "occult",
                        "primal"
                    ]
                },
                "traits": {
                    "custom": "",
                    "rarity": {
                        "value": "common"
                    },
                    "value": [
                        "revelation"
                    ]
                }
            },
            "effects": [],
            "flags": {
                "core": {
                    "sourceId": "Compendium.pf2e.spells-srd.uqlxMQQeSGWEVjki"
                }
            },
            "img": "systems/pf2e/icons/spells/true-seeing.webp",
            "name": "True Seeing (Constant)",
            "sort": 700000,
            "type": "spell"
        },
        {
            "_id": "vlPjYGA3btRTiGMk",
            "data": {
                "ability": {
                    "value": ""
                },
                "area": {
                    "areaType": "",
                    "value": null
                },
                "areasize": {
                    "value": ""
                },
                "autoHeightenLevel": {
                    "value": null
                },
                "category": {
                    "value": "spell"
                },
                "components": {
                    "focus": false,
                    "material": false,
                    "somatic": true,
                    "verbal": true
                },
                "cost": {
                    "value": ""
                },
                "damage": {
                    "value": {}
                },
                "description": {
                    "value": "<p>Opening a door that bypasses normal space, you instantly transport yourself and any items you're wearing and holding from your current space to a clear space within range you can see. If this would bring another creature with you-even if you're carrying it in an extradimensional container-the spell is lost.</p>\n<hr />\n<p><strong>Heightened (5th)</strong> The range increases to 1 mile. You don't need to be able to see your destination, as long as you have been there in the past and know its relative location and distance from you. You are temporarily immune for 1 hour.</p>"
                },
                "duration": {
                    "value": ""
                },
                "hasCounteractCheck": {
                    "value": false
                },
                "heightenedLevel": {
                    "value": 5
                },
                "level": {
                    "value": 4
                },
                "location": {
                    "value": "9kv8fbHEQiC1Wm6G"
                },
                "materials": {
                    "value": ""
                },
                "prepared": {
                    "value": ""
                },
                "primarycheck": {
                    "value": ""
                },
                "range": {
                    "value": "120 feet"
                },
                "rules": [],
                "save": {
                    "basic": "",
                    "value": ""
                },
                "school": {
                    "value": "conjuration"
                },
                "secondarycasters": {
                    "value": ""
                },
                "secondarycheck": {
                    "value": ""
                },
                "slug": "dimension-door",
                "source": {
                    "value": ""
                },
                "spellType": {
                    "value": "utility"
                },
                "sustained": {
                    "value": false
                },
                "target": {
                    "value": ""
                },
                "time": {
                    "value": "2"
                },
                "traditions": {
                    "value": [
                        "arcane",
                        "occult"
                    ]
                },
                "traits": {
                    "custom": "",
                    "rarity": {
                        "value": "common"
                    },
                    "value": [
                        "teleportation"
                    ]
                }
            },
            "effects": [],
            "flags": {
                "core": {
                    "sourceId": "Compendium.pf2e.spells-srd.VlNcjmYyu95vOUe8"
                }
            },
            "img": "systems/pf2e/icons/spells/dimension-door.webp",
            "name": "Dimension Door",
            "sort": 800000,
            "type": "spell"
        },
        {
            "_id": "i5XMdJS2ULpzUesI",
            "data": {
                "ability": {
                    "value": ""
                },
                "area": {
                    "areaType": "",
                    "value": ""
                },
                "areasize": {
                    "value": ""
                },
                "autoHeightenLevel": {
                    "value": null
                },
                "category": {
                    "value": "spell"
                },
                "components": {
                    "focus": false,
                    "material": false,
                    "somatic": true,
                    "verbal": true
                },
                "cost": {
                    "value": ""
                },
                "damage": {
                    "value": {}
                },
                "description": {
                    "value": "<p>Opening a door that bypasses normal space, you instantly transport yourself and any items you're wearing and holding from your current space to a clear space within range you can see. If this would bring another creature with you-even if you're carrying it in an extradimensional container-the spell is lost.</p>\n<hr />\n<p><strong>Heightened (5th)</strong> The range increases to 1 mile. You don't need to be able to see your destination, as long as you have been there in the past and know its relative location and distance from you. You are temporarily immune for 1 hour.</p>"
                },
                "duration": {
                    "value": ""
                },
                "hasCounteractCheck": {
                    "value": false
                },
                "heightenedLevel": {
                    "value": 4
                },
                "level": {
                    "value": 4
                },
                "location": {
                    "value": "9kv8fbHEQiC1Wm6G"
                },
                "materials": {
                    "value": ""
                },
                "prepared": {
                    "value": ""
                },
                "primarycheck": {
                    "value": ""
                },
                "range": {
                    "value": "120 feet"
                },
                "rules": [],
                "save": {
                    "basic": "",
                    "value": ""
                },
                "school": {
                    "value": "conjuration"
                },
                "secondarycasters": {
                    "value": ""
                },
                "secondarycheck": {
                    "value": ""
                },
                "slug": "dimension-door",
                "source": {
                    "value": ""
                },
                "spellType": {
                    "value": "utility"
                },
                "sustained": {
                    "value": false
                },
                "target": {
                    "value": ""
                },
                "time": {
                    "value": "2"
                },
                "traditions": {
                    "value": [
                        "arcane",
                        "occult"
                    ]
                },
                "traits": {
                    "custom": "",
                    "rarity": {
                        "value": "common"
                    },
                    "value": [
                        "teleportation"
                    ]
                }
            },
            "effects": [],
            "flags": {
                "core": {
                    "sourceId": "Compendium.pf2e.spells-srd.VlNcjmYyu95vOUe8"
                }
            },
            "img": "systems/pf2e/icons/spells/dimension-door.webp",
            "name": "Dimension Door (At Will)",
            "sort": 900000,
            "type": "spell"
        },
        {
            "_id": "XMrETD2JVHDplHQS",
            "data": {
                "ability": {
                    "value": ""
                },
                "area": {
                    "areaType": "",
                    "value": ""
                },
                "areasize": {
                    "value": "20-foot burst"
                },
                "autoHeightenLevel": {
                    "value": null
                },
                "category": {
                    "value": "spell"
                },
                "components": {
                    "focus": false,
                    "material": false,
                    "somatic": true,
                    "verbal": true
                },
                "cost": {
                    "value": ""
                },
                "damage": {
                    "value": {
                        "0": {
                            "type": {
                                "categories": [],
                                "value": "untyped"
                            },
                            "value": "4d10"
                        }
                    }
                },
                "description": {
                    "value": "<p>You can channel the fury of your deity against foes of opposed alignment. Choose an alignment your deity has (chaotic, evil, good, or lawful). You can't cast this spell if you don't have a deity or your deity is true neutral. This spell gains the trait of the alignment you chose. You deal 4d10 damage of the alignment you chose; each creature in the area must attempt a Fortitude save. Creatures that match the alignment you chose are unaffected. Those that neither match nor oppose it treat the result of their saving throw as one degree better.</p>\n<hr />\n<p><strong>Critical Success</strong> The creature is unaffected.</p>\n<p><strong>Success</strong> The creature takes half damage.</p>\n<p><strong>Failure</strong> The creature takes full damage and is @Compendium[pf2e.conditionitems.Sickened]{Sickened 1}.</p>\n<p><strong>Critical Failure</strong> The creature takes full damage and is @Compendium[pf2e.conditionitems.Sickened]{Sickened 2}; while it is sickened, it is also @Compendium[pf2e.conditionitems.Slowed]{Slowed 1}.</p>\n<hr />\n<p><strong>Heightened (+1)</strong> The damage increases by 1d10.</p>"
                },
                "duration": {
                    "value": ""
                },
                "hasCounteractCheck": {
                    "value": false
                },
                "heightenedLevel": {
                    "value": 8
                },
                "level": {
                    "value": 4
                },
                "location": {
                    "value": "9kv8fbHEQiC1Wm6G"
                },
                "materials": {
                    "value": ""
                },
                "prepared": {
                    "value": ""
                },
                "primarycheck": {
                    "value": ""
                },
                "range": {
                    "value": "120 feet"
                },
                "rules": [],
                "save": {
                    "basic": "",
                    "value": "fortitude"
                },
                "scaling": {
                    "damage": {
                        "0": "1d10"
                    },
                    "interval": 1
                },
                "school": {
                    "value": "evocation"
                },
                "secondarycasters": {
                    "value": ""
                },
                "secondarycheck": {
                    "value": ""
                },
                "slug": "divine-wrath",
                "source": {
                    "value": ""
                },
                "spellType": {
                    "value": "save"
                },
                "sustained": {
                    "value": false
                },
                "target": {
                    "value": ""
                },
                "time": {
                    "value": "2"
                },
                "traditions": {
                    "value": [
                        "divine"
                    ]
                },
                "traits": {
                    "custom": "",
                    "rarity": {
                        "value": "common"
                    },
                    "value": []
                }
            },
            "effects": [],
            "flags": {
                "core": {
                    "sourceId": "Compendium.pf2e.spells-srd.hVU9msO9yGkxKZ3J"
                }
            },
            "img": "systems/pf2e/icons/spells/divine-wrath.webp",
            "name": "Divine Wrath (At Will)",
            "sort": 1000000,
            "type": "spell"
        },
        {
            "_id": "Wf5r2vOjh8EJyCOl",
            "data": {
                "ability": {
                    "value": ""
                },
                "area": {
                    "areaType": "",
                    "value": null
                },
                "areasize": {
                    "value": ""
                },
                "autoHeightenLevel": {
                    "value": null
                },
                "category": {
                    "value": "ritual"
                },
                "components": {
                    "focus": false,
                    "material": false,
                    "somatic": false,
                    "verbal": false
                },
                "cost": {
                    "value": ""
                },
                "damage": {
                    "value": {}
                },
                "description": {
                    "value": "<p>You call in a favor from another demon whose level is no more than double <em>Abyssal pact's</em> spell level, two demons whose levels are each at least 2 less than double the spell level, or three demons whose levels are each at least 3 less than double the spell level.</p>\n<hr />\n<p><strong>Critical Success</strong> You conjure the demon or demons. They are eager to pursue the task, so they don't ask for a favor.</p>\n<p><strong>Success</strong> You conjure the demon or demons. They are not eager to pursue the task, so they require a favor in return.</p>\n<p><strong>Failure</strong> You don't conjure any demons.</p>\n<p><strong>Critical Failure</strong> The demon or demons are angry that you disturbed them. They appear before you, but they immediately attack you.</p>"
                },
                "duration": {
                    "value": ""
                },
                "hasCounteractCheck": {
                    "value": false
                },
                "level": {
                    "value": 1
                },
                "location": {
                    "value": "3gjhAW9ZvHGVA54s"
                },
                "materials": {
                    "value": ""
                },
                "prepared": {
                    "value": ""
                },
                "primarycheck": {
                    "value": "Religion (expert; you must be a demon)"
                },
                "range": {
                    "value": ""
                },
                "rules": [],
                "save": {
                    "basic": "",
                    "value": ""
                },
                "school": {
                    "value": "conjuration"
                },
                "secondarycasters": {
                    "value": ""
                },
                "secondarycheck": {
                    "value": ""
                },
                "slug": "abyssal-pact",
                "source": {
                    "value": ""
                },
                "spellType": {
                    "value": "utility"
                },
                "sustained": {
                    "value": false
                },
                "target": {
                    "value": ""
                },
                "time": {
                    "value": "1 day"
                },
                "traditions": {
                    "custom": "",
                    "value": []
                },
                "traits": {
                    "custom": "",
                    "rarity": {
                        "value": "uncommon"
                    },
                    "value": []
                }
            },
            "effects": [],
            "flags": {
                "core": {
                    "sourceId": "Compendium.pf2e.spells-srd.tsKnoBuBbKMXkiz5"
                }
            },
            "img": "systems/pf2e/icons/spells/abyssal-pact.webp",
            "name": "Abyssal Pact",
            "sort": 1100000,
            "type": "spell"
        },
        {
            "_id": "x2mWsBVbDUrRYIjF",
            "data": {
                "MAP": {
                    "value": ""
                },
                "ability": {
                    "value": "str"
                },
                "baseItem": "ranseur",
                "bonus": {
                    "value": 0
                },
                "bonusDamage": {
                    "value": 0
                },
                "brokenThreshold": {
                    "value": 0
                },
                "bulkCapacity": {
                    "value": ""
                },
                "collapsed": {
                    "value": false
                },
                "containerId": {
                    "value": ""
                },
                "damage": {
                    "damageType": "piercing",
                    "dice": 1,
                    "die": "d10",
                    "value": ""
                },
                "description": {
                    "value": "<p>This polearm is a long trident with a central prong that's longer than the other two.</p>"
                },
                "equipped": {
                    "value": true
                },
                "equippedBulk": {
                    "value": ""
                },
                "group": {
                    "value": "polearm"
                },
                "hands": {
                    "value": ""
                },
                "hardness": {
                    "value": 0
                },
                "hp": {
                    "value": 0
                },
                "identification": {
                    "misidentified": {},
                    "status": "identified",
                    "unidentified": {
                        "data": {
                            "description": {
                                "value": ""
                            }
                        },
                        "img": "",
                        "name": ""
                    }
                },
                "invested": {
                    "value": false
                },
                "level": {
                    "value": 0
                },
                "maxHp": {
                    "value": 0
                },
                "negateBulk": {
                    "value": "0"
                },
                "potencyRune": {
                    "value": 2
                },
                "preciousMaterial": {
                    "value": null
                },
                "preciousMaterialGrade": {
                    "value": null
                },
                "price": {
                    "value": "2 gp"
                },
                "property1": {
                    "critDamage": "",
                    "critDamageType": "",
                    "critDice": null,
                    "critDie": "",
                    "criticalConditionType": "",
                    "criticalConditionValue": null,
                    "damageType": "",
                    "dice": null,
                    "die": "",
                    "strikeConditionType": "",
                    "strikeConditionValue": null,
                    "value": ""
                },
                "propertyRune1": {
                    "value": null
                },
                "propertyRune2": {
                    "value": null
                },
                "propertyRune3": {
                    "value": null
                },
                "propertyRune4": {
                    "value": null
                },
                "quantity": {
                    "value": 1
                },
                "range": {
                    "value": "melee"
                },
                "reload": {
                    "value": ""
                },
                "rules": [],
                "size": {
                    "value": "med"
                },
                "slug": "ranseur",
                "source": {
                    "value": ""
                },
                "specific": {
                    "value": false
                },
                "splashDamage": {
                    "value": 0
                },
                "stackGroup": {
                    "value": ""
                },
                "strikingRune": {
                    "value": "greaterStriking"
                },
                "traits": {
                    "custom": "",
                    "rarity": {
                        "value": "common"
                    },
                    "value": [
                        "disarm",
                        "reach"
                    ]
                },
                "usage": {
                    "value": "held-in-one-hand"
                },
                "weaponType": {
                    "value": "martial"
                },
                "weight": {
                    "value": "2"
                }
            },
            "effects": [],
            "flags": {
                "core": {
                    "sourceId": "Compendium.pf2e.equipment-srd.UfurZQK6H6SgOjqe"
                }
            },
            "img": "systems/pf2e/icons/equipment/weapons/ranseur.webp",
            "name": "Ranseur",
            "sort": 1200000,
            "type": "weapon"
        },
        {
            "_id": "DqXqkU3tGCFwawCR",
            "data": {
                "armor": {
                    "value": 4
                },
                "armorType": {
                    "value": "medium"
                },
                "baseItem": "breastplate",
                "brokenThreshold": {
                    "value": null
                },
                "bulkCapacity": {
                    "value": ""
                },
                "check": {
                    "value": -2
                },
                "collapsed": {
                    "value": false
                },
                "containerId": {
                    "value": ""
                },
                "description": {
                    "value": "<p>Though referred to as a breastplate, this type of armor consists of several pieces of plate or half‑plate armor that protect the torso, chest, neck, and sometimes the hips and lower legs. It strategically grants some of the protection of plate while allowing greater flexibility and speed.</p>"
                },
                "dex": {
                    "value": 1
                },
                "equipped": {
                    "value": true
                },
                "equippedBulk": {
                    "value": "2"
                },
                "group": {
                    "value": "plate"
                },
                "hardness": {
                    "value": null
                },
                "hp": {
                    "value": null
                },
                "identification": {
                    "misidentified": {},
                    "status": "identified",
                    "unidentified": {
                        "data": {
                            "description": {
                                "value": ""
                            }
                        },
                        "img": "",
                        "name": ""
                    }
                },
                "invested": {
                    "value": false
                },
                "level": {
                    "value": 0
                },
                "maxHp": {
                    "value": null
                },
                "negateBulk": {
                    "value": "0"
                },
                "potency": {},
                "potencyRune": {
                    "value": null
                },
                "preciousMaterial": {
                    "value": ""
                },
                "preciousMaterialGrade": {
                    "value": ""
                },
                "price": {
                    "value": "8 gp"
                },
                "propertyRune1": {
                    "value": ""
                },
                "propertyRune2": {
                    "value": ""
                },
                "propertyRune3": {
                    "value": ""
                },
                "propertyRune4": {
                    "value": ""
                },
                "quantity": {
                    "value": 1
                },
                "resiliencyRune": {
                    "value": ""
                },
                "resilient": {},
                "rules": [],
                "size": {
                    "value": "med"
                },
                "slug": "breastplate",
                "source": {
                    "value": ""
                },
                "speed": {
                    "value": -5
                },
                "stackGroup": {
                    "value": ""
                },
                "strength": {
                    "value": 16
                },
                "traits": {
                    "custom": "",
                    "rarity": {
                        "value": "common"
                    },
                    "value": []
                },
                "usage": {
                    "value": "wornarmor"
                },
                "weight": {
                    "value": "3"
                }
            },
            "effects": [],
            "flags": {
                "core": {
                    "sourceId": "Compendium.pf2e.equipment-srd.r0ifJfoz8aqf0mwk"
                }
            },
            "img": "systems/pf2e/icons/equipment/armor/breastplate.webp",
            "name": "Breastplate",
            "sort": 1300000,
            "type": "armor"
        },
        {
            "_id": "Ce2SsOT9AnFtxFb9",
            "data": {
                "attack": {
                    "value": ""
                },
                "attackEffects": {
                    "custom": "",
                    "value": [
                        "grab"
                    ]
                },
                "bonus": {
                    "value": 36
                },
                "damageRolls": {
                    "xgas68p0lmhtgulz4bqp": {
                        "damage": "3d10+17",
                        "damageType": "piercing"
                    },
                    "c8yjui5xqavjrmjetthf": {
                        "damage": "1d10",
                        "damageType": "acid"
                    }
                },
                "description": {
                    "value": ""
                },
                "rules": [],
                "slug": null,
                "source": {
                    "value": ""
                },
                "traits": {
                    "custom": "",
                    "rarity": {
                        "value": "common"
                    },
                    "value": [
                        "disarm",
                        "magical",
                        "reach-25"
                    ]
                },
                "weaponType": {
                    "value": "melee"
                }
            },
            "effects": [],
            "flags": {},
            "img": "systems/pf2e/icons/default-icons/melee.svg",
            "name": "Ranseur",
            "sort": 1400000,
            "type": "melee"
        },
        {
            "_id": "UK1kJIuJwvm59qRG",
            "data": {
                "attack": {
                    "value": ""
                },
                "attackEffects": {
                    "custom": "",
                    "value": [
                        "smoking-wound"
                    ]
                },
                "bonus": {
                    "value": 35
                },
                "damageRolls": {
                    "fz0xgpyn4qd7np7k2zl5": {
                        "damage": "3d8+17",
                        "damageType": "piercing"
                    }
                },
                "description": {
                    "value": "<p>[[/r 2d8 #persistent bleed]] @Compendium[pf2e.conditionitems.Persistent Damage]{Persistent Bleed Damage}</p>"
                },
                "rules": [],
                "slug": null,
                "source": {
                    "value": ""
                },
                "traits": {
                    "custom": "",
                    "rarity": {
                        "value": "common"
                    },
                    "value": [
                        "magical",
                        "reach-15"
                    ]
                },
                "weaponType": {
                    "value": "melee"
                }
            },
            "effects": [],
            "flags": {},
            "img": "systems/pf2e/icons/default-icons/melee.svg",
            "name": "Jaws",
            "sort": 1500000,
            "type": "melee"
        },
        {
            "_id": "RhulgNsATpCM6nip",
            "data": {
                "attack": {
                    "value": ""
                },
                "attackEffects": {
                    "value": []
                },
                "bonus": {
                    "value": 35
                },
                "damageRolls": {
                    "qwavm5tbnv0q73pysauq": {
                        "damage": "3d10+17",
                        "damageType": "slashing"
                    }
                },
                "description": {
                    "value": ""
                },
                "rules": [],
                "slug": null,
                "source": {
                    "value": ""
                },
                "traits": {
                    "custom": "",
                    "rarity": {
                        "value": "common"
                    },
                    "value": [
                        "agile",
                        "magical",
                        "reach-15"
                    ]
                },
                "weaponType": {
                    "value": "melee"
                }
            },
            "effects": [],
            "flags": {},
            "img": "systems/pf2e/icons/default-icons/melee.svg",
            "name": "Claw",
            "sort": 1600000,
            "type": "melee"
        },
        {
            "_id": "AwQS25ihKMRo7aXf",
            "data": {
                "attack": {
                    "value": ""
                },
                "attackEffects": {
                    "custom": "",
                    "value": [
                        "stunning-tail"
                    ]
                },
                "bonus": {
                    "value": 35
                },
                "damageRolls": {
                    "eye6u031kz7f265j46a3": {
                        "damage": "3d12+17",
                        "damageType": "bludgeoning"
                    }
                },
                "description": {
                    "value": ""
                },
                "rules": [],
                "slug": null,
                "source": {
                    "value": ""
                },
                "traits": {
                    "custom": "",
                    "rarity": {
                        "value": "common"
                    },
                    "value": [
                        "backswing",
                        "magical",
                        "reach-20"
                    ]
                },
                "weaponType": {
                    "value": "melee"
                }
            },
            "effects": [],
            "flags": {},
            "img": "systems/pf2e/icons/default-icons/melee.svg",
            "name": "Tail",
            "sort": 1700000,
            "type": "melee"
        },
        {
            "_id": "MG1sm8Nhz6OcQWJU",
            "data": {
                "actionCategory": {
                    "value": "interaction"
                },
                "actionType": {
                    "value": "passive"
                },
                "actions": {
                    "value": null
                },
                "description": {
                    "value": "<p>A monster with darkvision can see perfectly well in areas of darkness and dim light, though such vision is in black and white only. Some forms of magical darkness, such as a 4th-level @Compendium[pf2e.spells-srd.Darkness]{Darkness} spell, block normal darkvision. A monster with @Compendium[pf2e.bestiary-ability-glossary-srd.Greater Darkvision]{Greater Darkvision}, however, can see through even these forms of magical darkness.</p>"
                },
                "requirements": {
                    "value": ""
                },
                "rules": [],
                "slug": "darkvision",
                "source": {
                    "value": ""
                },
                "traits": {
                    "custom": "",
                    "rarity": {
                        "value": "common"
                    },
                    "value": []
                },
                "trigger": {
                    "value": ""
                },
                "weapon": {
                    "value": ""
                }
            },
            "effects": [],
            "flags": {
                "core": {
                    "sourceId": "Compendium.pf2e.bestiary-ability-glossary-srd.qCCLZhnp2HhP3Ex6"
                }
            },
            "img": "systems/pf2e/icons/actions/Passive.webp",
            "name": "Darkvision",
            "sort": 1800000,
            "type": "action"
        },
        {
            "_id": "4aO4BXYjAfzlSCaA",
            "data": {
                "actionCategory": {
                    "value": "interaction"
                },
                "actionType": {
                    "value": "passive"
                },
                "actions": {
                    "value": null
                },
                "description": {
                    "value": "<p>The monster can cast its at-will spells any number of times without using up spell slots.</p>"
                },
                "requirements": {
                    "value": ""
                },
                "rules": [],
                "slug": "at-will-spells",
                "source": {
                    "value": ""
                },
                "traits": {
                    "custom": "",
                    "rarity": {
                        "value": "common"
                    },
                    "value": []
                },
                "trigger": {
                    "value": ""
                },
                "weapon": {
                    "value": ""
                }
            },
            "effects": [],
            "flags": {
                "core": {
                    "sourceId": "Compendium.pf2e.bestiary-ability-glossary-srd.2YRDYVnC1eljaXKK"
                }
            },
            "img": "systems/pf2e/icons/actions/Passive.webp",
            "name": "At-Will Spells",
            "sort": 1900000,
            "type": "action"
        },
        {
            "_id": "1ssNrmOzXYVSpnha",
            "data": {
                "actionCategory": {
                    "value": "interaction"
                },
                "actionType": {
                    "value": "passive"
                },
                "actions": {
                    "value": null
                },
                "description": {
                    "value": "<p>A constant spell affects the monster without the monster needing to cast it, and its duration is unlimited. If a constant spell gets counteracted, the monster can reactivate it by spending the normal spellcasting actions the spell requires.</p>"
                },
                "requirements": {
                    "value": ""
                },
                "rules": [],
                "slug": "constant-spells",
                "source": {
                    "value": ""
                },
                "traits": {
                    "custom": "",
                    "rarity": {
                        "value": "common"
                    },
                    "value": []
                },
                "trigger": {
                    "value": ""
                },
                "weapon": {
                    "value": ""
                }
            },
            "effects": [],
            "flags": {
                "core": {
                    "sourceId": "Compendium.pf2e.bestiary-ability-glossary-srd.kakyXBG5WA8c6Zfd"
                }
            },
            "img": "systems/pf2e/icons/actions/Passive.webp",
            "name": "Constant Spells",
            "sort": 2000000,
            "type": "action"
        },
        {
            "_id": "SpOY6o1ESOjHWepO",
            "data": {
                "actionCategory": {
                    "value": "interaction"
                },
                "actionType": {
                    "value": "passive"
                },
                "actions": {
                    "value": null
                },
                "description": {
                    "value": "<p>A monster with telepathy can communicate mentally with any creatures within the listed radius, as long as they share a language. This doesn't give any special access to their thoughts, and communicates no more information than normal speech would.</p>"
                },
                "requirements": {
                    "value": ""
                },
                "rules": [],
                "slug": "telepathy",
                "source": {
                    "value": ""
                },
                "traits": {
                    "custom": "",
                    "rarity": {
                        "value": "common"
                    },
                    "value": [
                        "aura",
                        "divination",
                        "magical"
                    ]
                },
                "trigger": {
                    "value": ""
                },
                "weapon": {
                    "value": ""
                }
            },
            "effects": [],
            "flags": {
                "core": {
                    "sourceId": "Compendium.pf2e.bestiary-ability-glossary-srd.kdhbPaBMK1d1fpbA"
                }
            },
            "img": "systems/pf2e/icons/actions/Passive.webp",
            "name": "Telepathy 100 feet",
            "sort": 2100000,
            "type": "action"
        },
        {
            "_id": "URt0ZSSRegSabF7O",
            "data": {
                "actionCategory": {
                    "value": "defensive"
                },
                "actionType": {
                    "value": "passive"
                },
                "actions": {
                    "value": null
                },
                "description": {
                    "value": ""
                },
                "requirements": {
                    "value": ""
                },
                "rules": [
                    {
                        "key": "FlatModifier",
                        "predicate": {
                            "any": [
                                "magical",
                                "arcane",
                                "divine",
                                "primal",
                                "occult"
                            ]
                        },
                        "selector": "saving-throw",
                        "type": "status",
                        "value": 1
                    }
                ],
                "slug": "1-status-to-all-saves-vs-magic",
                "source": {
                    "value": ""
                },
                "traits": {
                    "custom": "",
                    "rarity": {
                        "value": "common"
                    },
                    "value": []
                },
                "trigger": {
                    "value": ""
                },
                "weapon": {
                    "value": ""
                }
            },
            "effects": [],
            "flags": {
                "core": {
                    "sourceId": "Compendium.pf2e.bestiary-ability-glossary-srd.kquBnQ0kObZztnBc"
                }
            },
            "img": "systems/pf2e/icons/actions/Passive.webp",
            "name": "+1 Status to All Saves vs Magic",
            "sort": 2200000,
            "type": "action"
        },
        {
            "_id": "Heyof9Emy1vFTnqq",
            "data": {
                "actionCategory": {
                    "value": "defensive"
                },
                "actionType": {
                    "value": "passive"
                },
                "actions": {
                    "value": null
                },
                "description": {
                    "value": "<p>@Compendium[pf2e.bestiary-ability-glossary-srd.Aura]{Aura} 60 feet, <span data-pf2-check=\"will\" data-pf2-dc=\"37\" data-pf2-traits=\"aura,emotion,fear,mental\" data-pf2-label=\"Frightful Presence DC\" data-pf2-show-dc=\"gm\">Will</span></p>\n<hr />\n<p>A creature that first enters the area must attempt a Will save. Regardless of the result of the saving throw, the creature is temporarily immune to this monster's Frightful Presence for 1 minute.</p>\n<hr />\n<p><strong>Critical Success</strong> The creature is unaffected by the presence.</p>\n<p><strong>Success</strong> The creature is @Compendium[pf2e.conditionitems.Frightened]{Frightened 1}.</p>\n<p><strong>Failure</strong> The creature is @Compendium[pf2e.conditionitems.Frightened]{Frightened 2}.</p>\n<p><strong>Critical Failure</strong> The creature is @Compendium[pf2e.conditionitems.Frightened]{Frightened 4}.</p>"
                },
                "requirements": {
                    "value": ""
                },
                "rules": [],
                "slug": "frightful-presence",
                "source": {
                    "value": ""
                },
                "traits": {
                    "custom": "",
                    "rarity": {
                        "value": "common"
                    },
                    "value": [
                        "aura",
                        "emotion",
                        "fear",
                        "mental"
                    ]
                },
                "trigger": {
                    "value": ""
                },
                "weapon": {
                    "value": ""
                }
            },
            "effects": [],
            "flags": {
                "core": {
                    "sourceId": "Compendium.pf2e.bestiary-ability-glossary-srd.etMnv73EIdEZrYYu"
                }
            },
            "img": "systems/pf2e/icons/actions/Passive.webp",
            "name": "Frightful Presence",
            "sort": 2300000,
            "type": "action"
        },
        {
            "_id": "dq6M4Jej5LRa8pai",
            "data": {
                "actionCategory": {
                    "value": "defensive"
                },
                "actionType": {
                    "value": "passive"
                },
                "actions": {
                    "value": null
                },
                "description": {
                    "value": "<p>A vavakia is repulsed by the restoration of souls.</p>\n<p>The demon takes [[/r 3d10+10 #mental]]{3d10+10 mental damage} the first time each round that a creature within 100 feet of it is restored to life or loses the @Compendium[pf2e.conditionitems.Doomed]{Doomed} condition.</p>"
                },
                "requirements": {
                    "value": ""
                },
                "rules": [],
                "slug": null,
                "source": {
                    "value": ""
                },
                "traits": {
                    "custom": "",
                    "rarity": {
                        "value": "common"
                    },
                    "value": []
                },
                "trigger": {
                    "value": ""
                }
            },
            "effects": [],
            "flags": {},
            "img": "systems/pf2e/icons/actions/Passive.webp",
            "name": "Restoration Vulnerability",
            "sort": 2400000,
            "type": "action"
        },
        {
            "_id": "oe15nn62zh9y60Wn",
            "data": {
                "actionCategory": {
                    "value": "offensive"
                },
                "actionType": {
                    "value": "passive"
                },
                "actions": {
                    "value": null
                },
                "description": {
                    "value": "<p>A creature damaged by the vavakia's jaws is @Compendium[pf2e.conditionitems.Sickened]{Sickened 1} from the rank smell of vapors from the wound.</p>"
                },
                "requirements": {
                    "value": ""
                },
                "rules": [],
                "slug": null,
                "source": {
                    "value": ""
                },
                "traits": {
                    "custom": "",
                    "rarity": {
                        "value": "common"
                    },
                    "value": []
                },
                "trigger": {
                    "value": ""
                }
            },
            "effects": [],
            "flags": {},
            "img": "systems/pf2e/icons/actions/Passive.webp",
            "name": "Smoking Wound",
            "sort": 2500000,
            "type": "action"
        },
        {
            "_id": "GHc8hcw19z08DhNU",
            "data": {
                "actionCategory": {
                    "value": "offensive"
                },
                "actionType": {
                    "value": "action"
                },
                "actions": {
                    "value": 2
                },
                "description": {
                    "value": "<p>The vavakia exhales ghostly green fire in a <span data-pf2-effect-area=\"cone\" data-pf2-distance=\"60\">60-foot cone</span>.</p>\n<p>Living creatures in the area take [[/r 20d6 #negative]]{20d6 negative damage} (<span data-pf2-check=\"reflex\" data-pf2-dc=\"42\" data-pf2-traits=\"death,divine,necromancy,negative\" data-pf2-label=\"Soulfire Breath DC\" data-pf2-show-dc=\"gm\">basic Reflex</span> save).<span data-visibility=\"gm\"> A good creature that fails this save is becomes @Compendium[pf2e.conditionitems.Stupefied]{Stupefied 2} for 1 minute (@Compendium[pf2e.conditionitems.Stupefied]{Stupefied 4} on a critical failure).</span></p>\n<div data-visibility=\"gm\">\n<p>A creature slain by Soulfire Breath can't be resurrected except by powerful magic such as a <em>@Compendium[pf2e.spells-srd.Wish]{Wish}</em> spell.</p>\n<p>The vavakia can't use Soulfire Breath again for [[/br 1d4 #rounds]]{1d4 rounds}.</p>\n</div>"
                },
                "requirements": {
                    "value": ""
                },
                "rules": [],
                "slug": null,
                "source": {
                    "value": ""
                },
                "traits": {
                    "custom": "",
                    "rarity": {
                        "value": "common"
                    },
                    "value": [
                        "death",
                        "divine",
                        "necromancy",
                        "negative"
                    ]
                },
                "trigger": {
                    "value": ""
                }
            },
            "effects": [],
            "flags": {},
            "img": "systems/pf2e/icons/actions/TwoActions.webp",
            "name": "Soulfire Breath",
            "sort": 2600000,
            "type": "action"
        },
        {
            "_id": "FADVo5mG2frt3d8x",
            "data": {
                "actionCategory": {
                    "value": "offensive"
                },
                "actionType": {
                    "value": "action"
                },
                "actions": {
                    "value": 1
                },
                "description": {
                    "value": "<p><strong>Requirements</strong> The vavakia's last action was Soulfire Breath;</p>\n<p><strong>Effect</strong> The vavakia inhales and regains [[/r 10 #Hit Points]]{10 Hit Points} for each creature damaged by its Soulfire Breath. Any excess healing is gained as temporary Hit Points, which remain for 1 minute.</p>"
                },
                "requirements": {
                    "value": ""
                },
                "rules": [],
                "slug": null,
                "source": {
                    "value": ""
                },
                "traits": {
                    "custom": "",
                    "rarity": {
                        "value": "common"
                    },
                    "value": [
                        "divine",
                        "healing",
                        "necromancy"
                    ]
                },
                "trigger": {
                    "value": ""
                }
            },
            "effects": [],
            "flags": {},
            "img": "systems/pf2e/icons/actions/OneAction.webp",
            "name": "Soulfire Inhalation",
            "sort": 2700000,
            "type": "action"
        },
        {
            "_id": "t3bOnN3uPrJ4Ornk",
            "data": {
                "actionCategory": {
                    "value": "offensive"
                },
                "actionType": {
                    "value": "passive"
                },
                "actions": {
                    "value": null
                },
                "description": {
                    "value": "<p>If the vavakia critically hits with its tail Strike, the target must succeed at a <span data-pf2-check=\"fortitude\" data-pf2-dc=\"40\" data-pf2-traits=\"incapacitation\" data-pf2-label=\"Stunning Tail DC\" data-pf2-show-dc=\"gm\">Fortitude</span> save or be @Compendium[pf2e.conditionitems.Stunned]{Stunned} for 1 round ([[/br 1d4 #rounds]]{1d4 rounds} on a critical failure).</p>"
                },
                "requirements": {
                    "value": ""
                },
                "rules": [],
                "slug": null,
                "source": {
                    "value": ""
                },
                "traits": {
                    "custom": "",
                    "rarity": {
                        "value": "common"
                    },
                    "value": [
                        "incapacitation"
                    ]
                },
                "trigger": {
                    "value": ""
                }
            },
            "effects": [],
            "flags": {},
            "img": "systems/pf2e/icons/actions/Passive.webp",
            "name": "Stunning Tail",
            "sort": 2800000,
            "type": "action"
        },
        {
            "_id": "OukSsGFoINYIbHD9",
            "data": {
                "actionCategory": {
                    "value": "offensive"
                },
                "actionType": {
                    "value": "action"
                },
                "actions": {
                    "value": 3
                },
                "description": {
                    "value": "<p>Large or smaller, claw, <span data-pf2-check=\"reflex\" data-pf2-dc=\"40\" data-pf2-traits=\"damaging-effect\" data-pf2-label=\"Trample DC\" data-pf2-show-dc=\"gm\">basic Reflex</span></p>\n<hr />\n<p>The monster Strides up to double its Speed and can move through the spaces of creatures of the listed size, Trampling each creature whose space it enters. The monster can attempt to Trample the same creature only once in a single use of Trample. The monster deals the damage of the listed Strike, but trampled creatures can attempt a basic Reflex save at the listed DC (no damage on a critical success, half damage on a success, double damage on a critical failure).</p>"
                },
                "requirements": {
                    "value": ""
                },
                "rules": [],
                "slug": "trample",
                "source": {
                    "value": ""
                },
                "traits": {
                    "custom": "",
                    "rarity": {
                        "value": "common"
                    },
                    "value": []
                },
                "trigger": {
                    "value": ""
                },
                "weapon": {
                    "value": ""
                }
            },
            "effects": [],
            "flags": {
                "core": {
                    "sourceId": "Compendium.pf2e.bestiary-ability-glossary-srd.UNah0bxXxkcZjxO3"
                }
            },
            "img": "systems/pf2e/icons/actions/ThreeActions.webp",
            "name": "Trample",
            "sort": 2900000,
            "type": "action"
        },
        {
            "_id": "BcrVzHc6oLVuEmXs",
            "data": {
                "actionCategory": {
                    "value": "offensive"
                },
                "actionType": {
                    "value": "action"
                },
                "actions": {
                    "value": 1
                },
                "description": {
                    "value": "<p><strong>Requirements</strong> The monster's last action was a success with a Strike that lists Grab in its damage entry, or it has a creature grabbed using this action.</p>\n<p><strong>Effect</strong> The monster automatically Grabs the target until the end of the monster's next turn. The creature is @Compendium[pf2e.conditionitems.Grabbed]{Grabbed} by whichever body part the monster attacked with, and that body part can't be used to Strike creatures until the grab is ended. Using Grab extends the duration of the monster's Grab until the end of its next turn for all creatures grabbed by it. A grabbed creature can use the @Compendium[pf2e.actionspf2e.Escape]{Escape} action to get out of the grab, and the Grab ends for a grabbed creatures if the monster moves away from it.</p>"
                },
                "requirements": {
                    "value": ""
                },
                "rules": [],
                "slug": "grab",
                "source": {
                    "value": ""
                },
                "traits": {
                    "custom": "",
                    "rarity": {
                        "value": "common"
                    },
                    "value": []
                },
                "trigger": {
                    "value": ""
                },
                "weapon": {
                    "value": ""
                }
            },
            "effects": [],
            "flags": {
                "core": {
                    "sourceId": "Compendium.pf2e.bestiary-ability-glossary-srd.Tkd8sH4pwFIPzqTr"
                }
            },
            "img": "systems/pf2e/icons/actions/OneAction.webp",
            "name": "Grab",
            "sort": 3000000,
            "type": "action"
        },
        {
            "_id": "XGztJ1ZXD5G2MZ4f",
            "data": {
                "description": {
                    "value": ""
                },
                "mod": {
                    "value": 35
                },
                "proficient": {
                    "value": 0
                },
                "rules": [],
                "slug": null,
                "source": {
                    "value": ""
                },
                "traits": {
                    "custom": "",
                    "rarity": {
                        "value": "common"
                    },
                    "value": []
                }
            },
            "effects": [],
            "flags": {},
            "img": "systems/pf2e/icons/default-icons/lore.svg",
            "name": "Athletics",
            "sort": 3100000,
            "type": "lore"
        },
        {
            "_id": "10obhDMOgwxsRufE",
            "data": {
                "description": {
                    "value": ""
                },
                "mod": {
                    "value": 32
                },
                "proficient": {
                    "value": 0
                },
                "rules": [],
                "slug": null,
                "source": {
                    "value": ""
                },
                "traits": {
                    "custom": "",
                    "rarity": {
                        "value": "common"
                    },
                    "value": []
                }
            },
            "effects": [],
            "flags": {},
            "img": "systems/pf2e/icons/default-icons/lore.svg",
            "name": "Deception",
            "sort": 3200000,
            "type": "lore"
        },
        {
            "_id": "MekyM5ZXfWIjsKPk",
            "data": {
                "description": {
                    "value": ""
                },
                "mod": {
                    "value": 34
                },
                "proficient": {
                    "value": 0
                },
                "rules": [],
                "slug": null,
                "source": {
                    "value": ""
                },
                "traits": {
                    "custom": "",
                    "rarity": {
                        "value": "common"
                    },
                    "value": []
                }
            },
            "effects": [],
            "flags": {},
            "img": "systems/pf2e/icons/default-icons/lore.svg",
            "name": "Intimidation",
            "sort": 3300000,
            "type": "lore"
        },
        {
            "_id": "hI8JkXpS43JPccbJ",
            "data": {
                "description": {
                    "value": ""
                },
                "mod": {
                    "value": 30
                },
                "proficient": {
                    "value": 0
                },
                "rules": [],
                "slug": null,
                "source": {
                    "value": ""
                },
                "traits": {
                    "custom": "",
                    "rarity": {
                        "value": "common"
                    },
                    "value": []
                }
            },
            "effects": [],
            "flags": {},
            "img": "systems/pf2e/icons/default-icons/lore.svg",
            "name": "Religion",
            "sort": 3400000,
            "type": "lore"
        },
        {
            "_id": "zWk0grgZopGVyPMM",
            "data": {
                "description": {
                    "value": ""
                },
                "mod": {
                    "value": 32
                },
                "proficient": {
                    "value": 0
                },
                "rules": [],
                "slug": null,
                "source": {
                    "value": ""
                },
                "traits": {
                    "custom": "",
                    "rarity": {
                        "value": "common"
                    },
                    "value": []
                }
            },
            "effects": [],
            "flags": {},
            "img": "systems/pf2e/icons/default-icons/lore.svg",
            "name": "Stealth",
            "sort": 3500000,
            "type": "lore"
        }
    ],
    "name": "Vavakia",
    "token": {
        "disposition": -1,
        "height": 3,
        "img": "systems/pf2e/icons/default-icons/npc.svg",
        "name": "Vavakia",
        "width": 3
    },
    "type": "npc"
}
