{
    "_id": "aQcV1RqOFvtZaw0l",
    "data": {
        "boosts": {
            "0": {
                "value": [
                    "cha",
                    "wis"
                ]
            },
            "1": {
                "value": [
                    "cha",
                    "con",
                    "dex",
                    "int",
                    "str",
                    "wis"
                ]
            }
        },
        "description": {
            "value": "<p>You have known the Magaambyan teacher Takulu Ot and his wife Niana for many years. Both are amateur bird-watchers and musicians, and you share one of these hobbies. They are pleasant people and well-regarded in Nantambu, although their unshakable generosity and friendliness strike cynics as too earnest to be genuine. You know otherwise; Takulu and Niana are just as sincere as they appear. Takulu always seemed to watch you with a discerning eye, and one day he idly observed that you'd do well at the Magaambya. Talking about it further with him, Takulu agreed that he would sponsor you personally and be the one to give your intake interview. With a twinkle in his eye, he asked that you call him Teacher Ot from now on, just as all of his students do.</p>\n<p>Choose two ability boosts. One must be to <strong>Wisdom</strong> or <strong>Charisma</strong>, and one is a free ability boost.</p>\n<p>You're trained in the Survival skill. You gain the @Compendium[pf2e.feats-srd.Survey Wildlife]{Survey Wildlife} skill feat. You're also trained in Nantambu Lore.</p>\n<p>Your recommended primary branch is the Emerald Boughs.</p>"
        },
        "items": {
            "g7x3n": {
                "id": "tGIXuk0XeWmG04CX",
                "img": "systems/pf2e/icons/features/feats/feats.webp",
                "level": 1,
                "name": "Survey Wildlife",
                "pack": "pf2e.feats-srd"
            }
        },
        "rules": [],
        "source": {
            "value": "Strength of Thousands Player's Guide"
        },
        "trainedLore": "Nantambu Lore",
        "trainedSkills": {
            "custom": "",
            "value": [
                "sur"
            ]
        },
        "traits": {
            "custom": "",
            "rarity": {
                "value": "uncommon"
            },
            "value": []
        }
    },
    "effects": [],
    "flags": {},
    "img": "systems/pf2e/icons/default-icons/background.svg",
    "name": "Sponsored by Teacher Ot (Survival)",
    "type": "background"
}
