{
    "_id": "tD4ZNDutHoCGIFQn",
    "data": {
        "MAP": {
            "value": ""
        },
        "ability": {
            "value": "str"
        },
        "baseItem": "greatsword",
        "bonus": {
            "value": 0
        },
        "bonusDamage": {
            "value": 0
        },
        "brokenThreshold": {
            "value": 0
        },
        "bulkCapacity": {
            "value": ""
        },
        "collapsed": {
            "value": false
        },
        "containerId": {
            "value": ""
        },
        "damage": {
            "damageType": "slashing",
            "dice": 1,
            "die": "d12",
            "value": ""
        },
        "description": {
            "value": "<p>This +2 greater striking @Compendium[pf2e.equipment-srd.Shock]{Shock} greatsword is forged from standard-grade adamantine, with inlays of broken circuitry and a robot's ocular lens on the cross guard. A soft thrum comes from the blade, which you feel as a subtle pulse through the grip when wielding it. It sparks when unsheathed, emitting dim light within 5 feet.</p>\n<p>On a hit against a foe made of metal, wearing metal armor, or using a metal shield, if the foe takes electricity damage from the blade, the makes the foe flat-footed for 1 round; if the Strike was a critical hit, it also makes them clumsy 1 for 1 round.</p>\n<p><strong>Activate</strong> <span class=\"pf2-icon\">2</span> command, Interact</p>\n<p><strong>Effect</strong> You cast the @Compendium[pf2e.spells-srd.Electric Arc]{Electric Arc} cantrip from the sword as an 8th-level primal spell, using 10 + your melee attack modifier with the Blade of the Black Sovereign as your spell DC.</p>"
        },
        "equipped": {
            "value": false
        },
        "equippedBulk": {
            "value": ""
        },
        "group": {
            "value": "sword"
        },
        "hands": {
            "value": ""
        },
        "hardness": {
            "value": 0
        },
        "hp": {
            "value": 0
        },
        "identification": {
            "misidentified": {},
            "status": "identified",
            "unidentified": {
                "data": {
                    "description": {
                        "value": ""
                    }
                },
                "img": "",
                "name": ""
            }
        },
        "invested": {
            "value": false
        },
        "level": {
            "value": 15
        },
        "maxHp": {
            "value": 0
        },
        "negateBulk": {
            "value": "0"
        },
        "potencyRune": {
            "value": 2
        },
        "preciousMaterial": {
            "value": "adamantine"
        },
        "preciousMaterialGrade": {
            "value": "standard"
        },
        "price": {
            "value": "6,500 gp"
        },
        "property1": {
            "critDamage": "",
            "critDamageType": "",
            "critDice": 0,
            "critDie": "",
            "criticalConditionType": "",
            "criticalConditionValue": null,
            "damageType": "",
            "dice": 0,
            "die": "",
            "strikeConditionType": "",
            "strikeConditionValue": null,
            "value": ""
        },
        "propertyRune1": {
            "value": "shock"
        },
        "propertyRune2": {
            "value": null
        },
        "propertyRune3": {
            "value": null
        },
        "propertyRune4": {
            "value": null
        },
        "quantity": {
            "value": 1
        },
        "range": {
            "value": "melee"
        },
        "reload": {
            "value": ""
        },
        "rules": [],
        "size": {
            "value": "med"
        },
        "source": {
            "value": "Pathfinder Lost Omens: Legends"
        },
        "specific": {
            "material": {
                "grade": "standard",
                "type": "adamantine"
            },
            "runes": {
                "potency": 2,
                "striking": "greaterStriking"
            },
            "value": true
        },
        "splashDamage": {
            "value": 0
        },
        "stackGroup": {
            "value": ""
        },
        "strikingRune": {
            "value": "greaterStriking"
        },
        "traits": {
            "custom": "",
            "rarity": {
                "value": "unique"
            },
            "value": [
                "electricity",
                "evocation",
                "magical",
                "versatile-p"
            ]
        },
        "usage": {
            "value": "held-in-one-hand"
        },
        "weaponType": {
            "value": "martial"
        },
        "weight": {
            "value": "2"
        }
    },
    "effects": [],
    "flags": {},
    "img": "systems/pf2e/icons/equipment/weapons/specific-magic-weapons/blade-of-the-black-soverign.webp",
    "name": "Blade of the Black Soverign",
    "type": "weapon"
}
