{
    "_id": "Ywt7p5Fyx18lK8km",
    "data": {
        "baseItem": null,
        "brokenThreshold": {
            "value": 0
        },
        "bulkCapacity": {
            "value": ""
        },
        "collapsed": {
            "value": false
        },
        "containerId": {
            "value": ""
        },
        "description": {
            "value": "<p>The silvery glass of this oval mirror displays alluring sights. Its dark wooden frame is studded with small green gems and is carved with the shapes of a male figure on one edge of the glass and a female figure on the other side.</p>\n<p>The mirror can form a bond with a spellcaster who has legendary proficiency in Arcana or Occultism, who becomes the mirror's owner. Regardless of where the mirror is, as long as the bond remains, the owner is aware of everything the mirror is currently reflecting and can use the mirror's activations.</p>\n<p>Whenever an intelligent creature looks in the mirror, they see an image of a person, creature, or item they find irresistible-most often one they find attractive. The specific image varies depending on the observer, even when more than one creature is looking into the mirror at the same time. Observers are fascinated by the images in the mirror unless they succeed at a <span data-pf2-check=\"will\" data-pf2-dc=\"35\" data-pf2-traits=\"artifact,emotion,enchantment,incapacitation,magical,visual\" data-pf2-label=\"Mirror of Sorshen DC\" data-pf2-show-dc=\"gm\">Will</span> save each round. On a failure, they stare blankly at the mirror for as long as it remains in view, and if it leaves their view, they stare toward the last place they saw the mirror for several minutes thereafter. This is an emotion, enchantment, incapacitation, and visual effect. Creatures that are fascinated by the mirror are so deeply entranced that they don't end their fascinated condition automatically even if a creature uses hostile actions against them or their allies; instead, they can attempt a <span data-pf2-check=\"will\" data-pf2-dc=\"30\" data-pf2-traits=\"artifact,emotion,enchantment,incapacitation,magical,visual\" data-pf2-label=\"Mirror of Sorshen DC\" data-pf2-show-dc=\"gm\">Will</span> save to end the fascination. At the GM's discretion, a truly innocent creature or a creature that has renounced all worldly pleasures might be immune to the mirror's fascination.</p>\n<p><strong>Activate</strong> <span class=\"pf2-icon\">D</span> envision (emotion, enchantment, incapacitation, visual); <strong>Effect</strong> You force a creature looking at the mirror to attempt an additional Will save against the mirror's fascination effect, even if they succeeded at their save.</p>\n<p><strong>Activate</strong> <span class=\"pf2-icon\">T</span> command (emotion, enchantment, incapacitation); <strong>Requirements</strong> The target must be fascinated by the mirror; <strong>Effect</strong> You control the target for 30 days, with the effect of a critically failed saving throw against <em>@Compendium[pf2e.spells-srd.Dominate]{Dominate}</em>. If the victim sees the mirror again at any point before this duration expires, the control extends for an additional 30 days from the moment it looked at the mirror again. While there is no initial saving throw, the DC to break free due to commands against the creature's nature is 35.</p>\n<p><strong>Destruction</strong> The <em>Mirror of Sorshen</em> shatters into a thousand pieces if an intelligent but completely innocent creature resists the mirror's attraction and then accidentally drops it.</p>"
        },
        "equipped": {
            "value": false
        },
        "equippedBulk": {
            "value": ""
        },
        "hardness": {
            "value": 0
        },
        "hp": {
            "value": 0
        },
        "identification": {
            "misidentified": {},
            "status": "identified",
            "unidentified": {
                "data": {
                    "description": {
                        "value": ""
                    }
                },
                "img": "",
                "name": ""
            }
        },
        "invested": {
            "value": false
        },
        "level": {
            "value": 25
        },
        "maxHp": {
            "value": 0
        },
        "negateBulk": {
            "value": ""
        },
        "preciousMaterial": {
            "value": ""
        },
        "preciousMaterialGrade": {
            "value": ""
        },
        "price": {
            "value": "0 gp"
        },
        "quantity": {
            "value": 1
        },
        "rules": [],
        "size": {
            "value": "med"
        },
        "source": {
            "value": "Pathfinder Gamemastery Guide"
        },
        "stackGroup": {
            "value": ""
        },
        "traits": {
            "custom": "",
            "rarity": {
                "value": "unique"
            },
            "value": [
                "artifact",
                "enchantment",
                "magical"
            ]
        },
        "usage": {
            "value": "held-in-one-hand"
        },
        "weight": {
            "value": "L"
        }
    },
    "effects": [],
    "flags": {},
    "img": "systems/pf2e/icons/equipment/artifacts/mirror-of-sorshen.webp",
    "name": "Mirror of Sorshen",
    "type": "equipment"
}
