{
    "_id": "PTSdJqjiybZDxi4r",
    "data": {
        "activation": {
            "condition": "",
            "cost": 0,
            "type": ""
        },
        "autoDestroy": {
            "_deprecated": true,
            "value": true
        },
        "autoUse": {
            "_deprecated": true,
            "value": true
        },
        "baseItem": null,
        "brokenThreshold": {
            "value": 0
        },
        "bulkCapacity": {
            "value": ""
        },
        "charges": {
            "_deprecated": true,
            "max": 0,
            "value": 0
        },
        "collapsed": {
            "value": false
        },
        "consumableType": {
            "value": "potion"
        },
        "consume": {
            "_deprecated": true,
            "value": ""
        },
        "containerId": {
            "value": null
        },
        "description": {
            "value": "<p><strong>Activate</strong> <span class=\"pf2-icon\">1</span> Interact</p>\n<hr />\n<p>No matter how carefully you open this bottle, it always lets out an audible, echoing pop. For 1 minute after drinking this potion, you gain a +2 status bonus to Perception checks to hear. In addition, each time you Seek, your hearing becomes a precise sense until the beginning of your next turn, allowing you to pinpoint creatures' locations and otherwise perceive the world in detail by listening to the sound of echoes.</p>\n<p>@Compendium[pf2e.equipment-effects.Equipment Effect: Potion of Minute Echoes]{Equipment Effect: Potion of Minute Echoes}</p>"
        },
        "duration": {
            "units": "",
            "value": null
        },
        "equipped": {
            "value": false
        },
        "equippedBulk": {
            "value": ""
        },
        "hardness": {
            "value": 0
        },
        "hp": {
            "value": 0
        },
        "identification": {
            "misidentified": {},
            "status": "identified",
            "unidentified": {
                "data": {
                    "description": {
                        "value": ""
                    }
                },
                "img": "",
                "name": ""
            }
        },
        "level": {
            "value": 3
        },
        "maxHp": {
            "value": 0
        },
        "negateBulk": {
            "value": "0"
        },
        "preciousMaterial": {
            "value": null
        },
        "preciousMaterialGrade": {
            "value": null
        },
        "price": {
            "value": "125 gp"
        },
        "quantity": {
            "value": 1
        },
        "range": {
            "long": null,
            "units": "",
            "value": null
        },
        "rules": [],
        "size": {
            "value": "med"
        },
        "source": {
            "value": "Pathfinder Secrets of Magic"
        },
        "spell": {
            "data": null,
            "heightenedLevel": null
        },
        "stackGroup": {
            "value": ""
        },
        "target": {
            "type": "",
            "units": "",
            "value": null
        },
        "traits": {
            "custom": "",
            "rarity": {
                "value": "common"
            },
            "value": [
                "consumable",
                "divination",
                "magical",
                "potion"
            ]
        },
        "usage": {
            "value": "held-in-one-hand"
        },
        "uses": {
            "autoDestroy": true,
            "autoUse": true,
            "max": 0,
            "per": null,
            "value": 0
        },
        "weight": {
            "value": "L"
        }
    },
    "effects": [],
    "flags": {},
    "img": "systems/pf2e/icons/default-icons/consumable.svg",
    "name": "Potion of Minute Echoes",
    "type": "consumable"
}
