{
    "_id": "geAAUwfmOc5U0qOE",
    "data": {
        "baseItem": null,
        "brokenThreshold": {
            "value": 0
        },
        "bulkCapacity": {
            "value": ""
        },
        "collapsed": {
            "value": false
        },
        "containerId": {
            "value": null
        },
        "description": {
            "value": "<p>This small, enchanted bone (most often a jaw) is usually capped with metal at its ends. It's activated by striking it against a hard surface.</p>\n<hr />\n<p><strong>Activate</strong> <span class=\"pf2-icon\">1</span> Interact;</p>\n<p><strong>Effect</strong> The bone begins recording the next 1 minute of ambient sounds (including speech) that require a DC 15 or lower Perception check to hear. The bone's recording doesn't copy magical auditory effects, such as those of spellcasting, a harpy's song, or a banshee's wail. Once the rhythm bone has been activated in this way, it retains the recorded sound for the rest of its existence and can't be activated this way again.</p>\n<hr />\n<p><strong>Activate</strong> <span class=\"pf2-icon\">1</span> Interact;</p>\n<p><strong>Effect</strong> The bone replays its recorded sounds.</p>\n<hr />\n<p><strong>Craft Requirements</strong> Supply a casting of @Compendium[pf2e.spells-srd.Ghost Sound]{Ghost Sound}.</p>"
        },
        "equipped": {
            "value": false
        },
        "equippedBulk": {
            "value": ""
        },
        "hardness": {
            "value": 0
        },
        "hp": {
            "value": 0
        },
        "identification": {
            "misidentified": {},
            "status": "identified",
            "unidentified": {
                "data": {
                    "description": {
                        "value": ""
                    }
                },
                "img": "",
                "name": ""
            }
        },
        "invested": {
            "value": null
        },
        "level": {
            "value": 1
        },
        "maxHp": {
            "value": 0
        },
        "negateBulk": {
            "value": "0"
        },
        "preciousMaterial": {
            "value": null
        },
        "preciousMaterialGrade": {
            "value": null
        },
        "price": {
            "value": "8 gp"
        },
        "quantity": {
            "value": 1
        },
        "rules": [],
        "size": {
            "value": "med"
        },
        "source": {
            "value": "Pathfinder #169: Kindled Magic"
        },
        "stackGroup": {
            "value": ""
        },
        "traits": {
            "custom": "",
            "rarity": {
                "value": "uncommon"
            },
            "value": [
                "auditory",
                "magical"
            ]
        },
        "usage": {
            "value": "held-in-one-hand"
        },
        "weight": {
            "value": "L"
        }
    },
    "effects": [],
    "flags": {},
    "img": "systems/pf2e/icons/default-icons/equipment.svg",
    "name": "Rhythm Bone",
    "type": "equipment"
}
