{
    "_id": "WbcQqXrUytXkCMK3",
    "data": {
        "MAP": {
            "value": ""
        },
        "ability": {
            "value": "str"
        },
        "baseItem": "staff",
        "bonus": {
            "value": 0
        },
        "bonusDamage": {
            "value": 0
        },
        "brokenThreshold": {
            "value": 0
        },
        "bulkCapacity": {
            "value": ""
        },
        "collapsed": {
            "value": false
        },
        "containerId": {
            "value": ""
        },
        "damage": {
            "damageType": "bludgeoning",
            "dice": 1,
            "die": "d4",
            "value": ""
        },
        "description": {
            "value": "<p>Made of smooth, white wood, this staff is capped at each end with a golden cross adorned with a multitude of ruby cabochons. A staff of healing grants an item bonus to the Hit Points you restore anytime you cast the heal spell using your own spell slots or using charges from the staff.</p>\n<p><strong>Activate</strong> Cast a Spell; <strong>Effect</strong> You expend a number of charges from the staff to cast a spell from its list.</p>\n<p><strong>Craft Requirements</strong> Supply one casting of all listed levels of all listed spells.</p>\n<p>The item bonus granted to <em>heal</em> spells is +3.</p>\n<ul>\n<li><strong>Cantrip</strong> @Compendium[pf2e.spells-srd.Stabilize]{Stabilize}</li>\n<li><strong>1st</strong> @Compendium[pf2e.spells-srd.Heal]{Heal}</li>\n<li><strong>2nd</strong> @Compendium[pf2e.spells-srd.Heal]{Heal} @Compendium[pf2e.spells-srd.Restoration]{Restoration} @Compendium[pf2e.spells-srd.Restore Senses]{Restore Senses}</li>\n<li><strong>3rd</strong> @Compendium[pf2e.spells-srd.Heal]{Heal} @Compendium[pf2e.spells-srd.Remove Disease]{Remove Disease}</li>\n<li><strong>4th</strong> @Compendium[pf2e.spells-srd.Heal]{Heal} @Compendium[pf2e.spells-srd.Restoration]{Restoration}</li>\n<li><strong>5th</strong> @Compendium[pf2e.spells-srd.Breath of Life]{Breath of Life}, @Compendium[pf2e.spells-srd.Heal]{Heal}, @Compendium[pf2e.spells-srd.Remove Disease]{Remove Disease}</li>\n<li><strong>6th</strong> @Compendium[pf2e.spells-srd.Heal]{Heal} @Compendium[pf2e.spells-srd.Restoration]{Restoration} @Compendium[pf2e.spells-srd.Restore Senses]{Restore Senses}</li>\n<li><strong>7th</strong> @Compendium[pf2e.spells-srd.Heal]{Heal} @Compendium[pf2e.spells-srd.Regenerate]{Regenerate} @Compendium[pf2e.spells-srd.Remove Disease]{Remove Disease}</li>\n</ul>"
        },
        "equipped": {
            "value": false
        },
        "equippedBulk": {
            "value": ""
        },
        "group": {
            "value": "club"
        },
        "hands": {
            "value": ""
        },
        "hardness": {
            "value": 0
        },
        "hp": {
            "value": 0
        },
        "identification": {
            "misidentified": {},
            "status": "identified",
            "unidentified": {
                "data": {
                    "description": {
                        "value": ""
                    }
                },
                "img": "",
                "name": ""
            }
        },
        "invested": {
            "value": false
        },
        "level": {
            "value": 16
        },
        "maxHp": {
            "value": 0
        },
        "negateBulk": {
            "value": "0"
        },
        "potencyRune": {
            "value": null
        },
        "preciousMaterial": {
            "value": ""
        },
        "preciousMaterialGrade": {
            "value": ""
        },
        "price": {
            "value": "9,200 gp"
        },
        "property1": {
            "critDamage": "",
            "critDamageType": "",
            "critDice": null,
            "critDie": "",
            "criticalConditionType": "",
            "criticalConditionValue": null,
            "damageType": "",
            "dice": null,
            "die": "",
            "strikeConditionType": "",
            "strikeConditionValue": null,
            "value": ""
        },
        "propertyRune1": {
            "value": ""
        },
        "propertyRune2": {
            "value": ""
        },
        "propertyRune3": {
            "value": ""
        },
        "propertyRune4": {
            "value": ""
        },
        "quantity": {
            "value": 1
        },
        "range": {
            "value": "melee"
        },
        "reload": {
            "value": ""
        },
        "rules": [],
        "size": {
            "value": "med"
        },
        "source": {
            "value": "Pathfinder Core Rulebook"
        },
        "splashDamage": {
            "value": 0
        },
        "stackGroup": {
            "value": ""
        },
        "strikingRune": {
            "value": ""
        },
        "traits": {
            "custom": "",
            "rarity": {
                "value": "common"
            },
            "value": [
                "magical",
                "necromancy",
                "staff",
                "two-hand-d8"
            ]
        },
        "usage": {
            "value": "held-in-one-hand"
        },
        "weaponType": {
            "value": "simple"
        },
        "weight": {
            "value": "1"
        }
    },
    "effects": [],
    "flags": {},
    "img": "systems/pf2e/icons/equipment/staves/staff-of-healing.webp",
    "name": "Staff of Healing (True)",
    "type": "weapon"
}
