{
    "_id": "VsRKgjKolLsJMd0I",
    "data": {
        "attributes": {
            "ac": {
                "value": 27
            },
            "hardness": 16,
            "hasHealth": true,
            "hp": {
                "details": "",
                "max": 30,
                "temp": 0,
                "tempmax": 0,
                "value": 30
            },
            "stealth": {
                "details": "<p>(expert)</p>",
                "value": 18
            }
        },
        "creatureType": "",
        "customModifiers": {},
        "details": {
            "description": "<p>Six long blades, hidden in grooves in the walls and floor, zigzag through different parts of this hallway when any pressure plate in the hallway intersection is depressed; there are so many plates it's impossible to avoid them when moving through the room. The blades retreat into the floor and move through the hidden grooves before swinging out from the wall again in a different location.</p>",
            "disable": "<p>DC 26 Thievery (expert) to disable each blade, or utter the magical passphrase (which only Chafkhem knows) to deactivate the trap for 10 minutes</p>",
            "isComplex": true,
            "level": {
                "value": 8
            },
            "reset": "<p>The trap resets when no creatures remain in area <strong>B20</strong>. Damaged or destroyed blades aren't repaired when the trap resets.</p>",
            "routine": "<p>(7 actions) The trap spends 1 action for each of its blades; a blade makes a scythe Strike against each creature in its region. With its final action, the trap uses Scythe Shuffle. Reduce the number of actions the trap can take by 1 for each destroyed blade.</p>"
        },
        "saves": {
            "fortitude": {
                "saveDetail": "",
                "value": 19
            },
            "reflex": {
                "saveDetail": "",
                "value": 13
            },
            "will": {
                "saveDetail": "",
                "value": 0
            }
        },
        "source": {
            "value": "Pathfinder #164: Hands of the Devil"
        },
        "statusEffects": [],
        "traits": {
            "ci": [],
            "di": {
                "custom": "",
                "selected": {},
                "value": [
                    "critical-hits",
                    "object-immunities",
                    "precision-damage"
                ]
            },
            "dr": [],
            "dv": [],
            "rarity": {
                "value": "common"
            },
            "size": {
                "value": "med"
            },
            "traits": {
                "custom": "",
                "value": [
                    "magical",
                    "mechanical"
                ]
            }
        }
    },
    "effects": [],
    "flags": {},
    "img": "systems/pf2e/icons/default-icons/hazard.svg",
    "items": [
        {
            "_id": "yNjPKC3nPRiaD957",
            "data": {
                "actionCategory": {
                    "value": "offensive"
                },
                "actionType": {
                    "value": "reaction"
                },
                "actions": {
                    "value": null
                },
                "description": {
                    "value": "<p data-visibility=\"gm\"><strong>Trigger</strong> A creature steps in the 15-footby-25-foot area where the branching hallways connect; <strong>Effect</strong> The trap uses Scythe Shuffle; each blade makes a scythe Strike against each creature in its region, then it uses Scythe Shuffle again. The trap then rolls for initiative.</p>"
                },
                "requirements": {
                    "value": ""
                },
                "rules": [],
                "slug": null,
                "source": {
                    "value": ""
                },
                "traits": {
                    "custom": "",
                    "rarity": {
                        "value": "common"
                    },
                    "value": []
                },
                "trigger": {
                    "value": ""
                },
                "weapon": {
                    "value": ""
                }
            },
            "effects": [],
            "flags": {},
            "img": "systems/pf2e/icons/actions/Reaction.webp",
            "name": "Dicing Scythes",
            "sort": 100000,
            "type": "action"
        },
        {
            "_id": "4UocioViS4VkF9mM",
            "data": {
                "actionCategory": {
                    "value": "offensive"
                },
                "actionType": {
                    "value": "action"
                },
                "actions": {
                    "value": null
                },
                "description": {
                    "value": "<p>The blades travel erratically throughout the hallway's branches, out of sight under the floors or behind the walls. For each blade, roll [[/br 1d4]] to determine the region in which it next makes scythe Strikes. A creature can Seek (DC 22) to learn clues about blades in the region they're currently occupying. On a success, the creature knows how many blades are currently in its region.</p>\n<p>1. Main intersection (the 15-foot-by-25-foot area where the hallways connect, as marked on area <strong>B20</strong>)</p>\n<p>2. North branch (from the main intersection to the secret door to area <strong>B14</strong>)</p>\n<p>3. Central hall (from the main intersection to the secret door to area <strong>B24</strong>)</p>\n<p>4. South branch (from the main intersection to the wall shared with area <strong>B25</strong>)</p>"
                },
                "requirements": {
                    "value": ""
                },
                "rules": [],
                "slug": null,
                "source": {
                    "value": ""
                },
                "traits": {
                    "custom": "",
                    "rarity": {
                        "value": "common"
                    },
                    "value": []
                },
                "trigger": {
                    "value": ""
                },
                "weapon": {
                    "value": ""
                }
            },
            "effects": [],
            "flags": {},
            "img": "systems/pf2e/icons/actions/OneAction.webp",
            "name": "Scythe Shuffle",
            "sort": 200000,
            "type": "action"
        },
        {
            "_id": "iY5D7YKAlye71zpy",
            "data": {
                "attack": {
                    "value": ""
                },
                "attackEffects": {
                    "custom": "",
                    "value": [
                        "no-map"
                    ]
                },
                "bonus": {
                    "value": 20
                },
                "damageRolls": {
                    "h8worv865sasqigknrn2h": {
                        "damage": "1d12+8",
                        "damageType": "slashing"
                    }
                },
                "description": {
                    "value": "<p>No MAP applies to strikes made by scythe attacks</p>"
                },
                "rules": [],
                "slug": null,
                "source": {
                    "value": ""
                },
                "traits": {
                    "custom": "",
                    "rarity": {
                        "value": "common"
                    },
                    "value": [
                        "deadly-d12"
                    ]
                },
                "weaponType": {
                    "value": "melee"
                }
            },
            "effects": [],
            "flags": {},
            "img": "systems/pf2e/icons/default-icons/melee.svg",
            "name": "Scythe",
            "sort": 300000,
            "type": "melee"
        },
        {
            "_id": "oKefVQZfmh0iqIhc",
            "data": {
                "actionCategory": {
                    "value": "interaction"
                },
                "actionType": {
                    "value": "passive"
                },
                "actions": {
                    "value": null
                },
                "description": {
                    "value": "<p>The Scythe Strikes do not apply a MAP.</p>"
                },
                "requirements": {
                    "value": ""
                },
                "rules": [],
                "slug": null,
                "source": {
                    "value": ""
                },
                "traits": {
                    "custom": "",
                    "rarity": {
                        "value": "common"
                    },
                    "value": []
                },
                "trigger": {
                    "value": ""
                },
                "weapon": {
                    "value": ""
                }
            },
            "effects": [],
            "flags": {},
            "img": "systems/pf2e/icons/actions/Passive.webp",
            "name": "No MAP",
            "sort": 0,
            "type": "action"
        }
    ],
    "name": "Shuffling Scythe Blades",
    "token": {
        "disposition": 0,
        "height": 1,
        "img": "systems/pf2e/icons/default-icons/hazard.svg",
        "name": "Shuffling Scythe Blades",
        "width": 1
    },
    "type": "hazard"
}
