{
    "_id": "UlKGxPaKtRGWuq3V",
    "data": {
        "actionCategory": {
            "value": "offensive"
        },
        "actionType": {
            "value": "passive"
        },
        "actions": {
            "value": null
        },
        "description": {
            "value": "<p>A divine warden always wields its patron deity's favored weapon. If the weapon is a ranged weapon, the divine warden automatically generates new ammunition with each attack. For a divine warden of 4th level or higher, the deity's favored weapon gains the effects of a <em>@Compendium[pf2e.equipment-srd.Striking]{Striking}</em> rune while the divine warden wields it; at 12th level, these effects are of a <em>@Compendium[pf2e.equipment-srd.Striking (Greater)]{Greater Striking}</em> rune, and at 19th level, they're instead of a <em>@Compendium[pf2e.equipment-srd.Striking (Major)]{Major Striking}</em> rune.</p>"
        },
        "requirements": {
            "value": ""
        },
        "rules": [],
        "source": {
            "value": "Pathfinder Bestiary 3"
        },
        "traits": {
            "custom": "",
            "rarity": {
                "value": "common"
            },
            "value": []
        },
        "trigger": {
            "value": ""
        },
        "weapon": {
            "value": ""
        }
    },
    "effects": [],
    "flags": {},
    "img": "systems/pf2e/icons/actions/Passive.webp",
    "name": "(Divine Warden) Faithful Weapon",
    "type": "action"
}
