{
    "_id": "0XiPnnxKHWKFg1tN",
    "data": {
        "actionCategory": {
            "value": "offensive"
        },
        "actionType": {
            "value": "action"
        },
        "actions": {
            "value": 2
        },
        "description": {
            "value": "<p>Your eidolon exhales a blast of destructive energy. Your eidolon deals [[/r 1d6 #piercing]]{1d6 piercing damage} to all creatures in a <span data-pf2-effect-area=\"cone\" data-pf2-distance=\"30\">30-foot cone</span>, with a basic Reflex save against your spell DC.</p>\n<p>Your eidolon then can't use their Breath Weapon again for the next [[/r 1d4 #rounds]]{1d4 rounds}.</p>\n<p>At 3rd level and every 2 levels thereafter, the damage increases by 1d6. [[/r (floor(@details.level.value/2))d6 #piercing]]{Levelled Damage}</p>"
        },
        "requirements": {
            "value": ""
        },
        "rules": [],
        "source": {
            "value": ""
        },
        "traits": {
            "custom": "",
            "rarity": {
                "value": "common"
            },
            "value": [
                "arcane",
                "eidolon",
                "evocation"
            ]
        },
        "trigger": {
            "value": ""
        },
        "weapon": {
            "value": ""
        }
    },
    "effects": [],
    "flags": {},
    "img": "systems/pf2e/icons/actions/TwoActions.webp",
    "name": "Breath Weapon (Piercing) (Cone)",
    "type": "action"
}
