{
    "_id": "WHAp9cDOqnJ1VCcg",
    "data": {
        "description": {
            "value": "<p>You receive a +1 status bonus to your Performance check. If you roll a success, you get a critical success instead.</p>"
        },
        "duration": {
            "expiry": "turn-start",
            "sustained": false,
            "unit": "rounds",
            "value": 1
        },
        "level": {
            "value": 8
        },
        "rules": [
            {
                "key": "FlatModifier",
                "selector": "performance",
                "type": "status",
                "value": 1
            },
            {
                "adjustment": {
                    "success": "one-degree-better"
                },
                "key": "AdjustDegreeOfSuccess",
                "selector": "performance",
                "type": "skill"
            }
        ],
        "source": {
            "value": ""
        },
        "start": {
            "initiative": null,
            "value": 0
        },
        "target": null,
        "tokenIcon": {
            "show": true
        },
        "traits": {
            "custom": "",
            "rarity": {
                "value": "common"
            },
            "value": []
        }
    },
    "effects": [],
    "flags": {},
    "img": "systems/pf2e/icons/default-icons/effect.svg",
    "name": "Equipment Effect: Orchestral Brooch",
    "type": "effect"
}
