{
    "_id": "6dsPjRKjCPd9BWPt",
    "data": {
        "description": {
            "value": "<p>Adding this material component to a heal spell bestows an additional 15 temporary Hit Points to one target healed by the spell. These temporary Hit Points last for 1 minute.</p>"
        },
        "duration": {
            "expiry": "turn-start",
            "sustained": false,
            "unit": "minutes",
            "value": 1
        },
        "level": {
            "value": 13
        },
        "rules": [
            {
                "key": "TempHP",
                "value": 15
            }
        ],
        "source": {
            "value": "Pathfinder Secrets of Magic"
        },
        "start": {
            "initiative": null,
            "value": 0
        },
        "target": null,
        "tokenIcon": {
            "show": true
        },
        "traits": {
            "custom": "",
            "rarity": {
                "value": "common"
            },
            "value": []
        }
    },
    "effects": [],
    "flags": {},
    "img": "systems/pf2e/icons/default-icons/effect.svg",
    "name": "Equipment Effect: Greater Healer's Gel",
    "type": "effect"
}
