{
    "_id": "EE8sNM4JraOPN669",
    "content": "<h1 class=\"title\">Cernunnos (The Horned Lord) [CG]</h1>\n<p class=\"title\"><span id=\"ctl00_MainContent_DetailedOutput\"><span id=\"ctl00_MainContent_DetailedOutput\">Knowing that he is still one person despite his power, Cernunnos trains commanders and emissaries to fight evil in both the Material Plane and the First World. The faithful of Cernunnos are mainly intelligent plant creatures, fey, and mortal rangers and druids. Elves view him as patron of luck, while others pray to him for strength. Hidden groves, waterfalls and deep forests are sacred to Cernunnos.</p>\n<p></span><span id=\"ctl00_MainContent_DetailedOutput\"><strong>Edicts</strong> Protect forests and other natural areas, advocate for animals and plants, take and commit to decisive actions</p>\n<p><strong>Anathema</strong> Fail to strike down evil, enable the destruction of wilderness, needlessly kill animals</p>\n<p><strong>Follower Alignments</strong> LG, NG, CG</span></p>\n<p></span></p>\n<h2 class=\"title\">Devotee Benefits</h2>\n<div>\n<div><strong>Divine Ability</strong> Strength or Constitution</div>\n<div><strong>Divine Font</strong> heal</div>\n<div><strong>Divine Skill</strong> Survival</div>\n<div><strong>Favored Weapon</strong> longbow</div>\n<div><strong>Domains</strong> lightning, nature, passion, zeal</div>\n<div><strong>Cleric Spells</strong> 1st: true strike, 2nd: animal form, 3rd: lightning bolt</div>\n</div>",
    "flags": {},
    "name": "Cernunnos",
    "permission": {
        "default": 0
    }
}
