{
    "_id": "QlDnoOwf0PppymTn",
    "content": "<h1 class=\"title\">Hanspur (The Water Rat) [CN]</h1>\n<p class=\"title\"><span id=\"ctl00_MainContent_DetailedOutput\"><span id=\"ctl00_MainContent_DetailedOutput\"><strong><img style=\"float: right;\" src=\"https://i.imgur.com/vsgY8JO.png\" alt=\"\" width=\"142\" height=\"119\" />Hanspur</strong> is a demigod of the waterways worshiped primarily in the River Kingdoms. Hanspur is the god of the watery domains of the Sellen River and considers himself lord of all who travel his domain. As a travel god, his shrines always lie just outside the town gates. Despite this, he is still paid at least lip service by the peoples of the River Kingdoms, as he smites those who displease him by sinking their boats and flooding their lands. Hanspur considers dams that completely block a river to be unnatural.</p>\n<p></span><span id=\"ctl00_MainContent_DetailedOutput\"><strong>Edicts</strong> Learn how to live off the river, guard river travelers from unnatural hazards, save others from drowning</p>\n<p><strong>Anathema</strong> Impose needless laws or restrictions on others, aid daemons or the Horsemen</p>\n<p><strong>Follower Alignments</strong> CG, N, CN, CE</span></p>\n<p></span></p>\n<h2 class=\"title\">Devotee Benefits</h2>\n<div>\n<div><strong>Divine Ability</strong> Strength or Dexterity</div>\n<div><strong>Divine Font</strong> harm</div>\n<div><strong>Divine Skill</strong> Athletics</div>\n<div><strong>Favored Weapon</strong> trident</div>\n<div><strong>Domains</strong> death, travel, water, wealth</div>\n<div><strong>Cleric Spells</strong> 1st: hydraulic push, 2nd: abyssal plague (aqueous orb (Advanced Player's Guide, coming soon)), 4th: solid fog</div>\n</div>",
    "flags": {},
    "name": "Hanspur",
    "permission": {
        "default": 0
    }
}
