{
    "_id": "s81N9hxffmRuy3ik",
    "content": "<h1 class=\"title\">Kerkamoth (The Waiting Void) [LN]</h1>\n<p class=\"title\"><span id=\"ctl00_MainContent_DetailedOutput\">Also known as the Waiting Void, the unseen Kerkamoth is the primordial inevitable of emptiness, entropy, and stillness. Though many people view decay and entropy as manifestations of chaos, followers of Kerkamoth understand that in an orderly universe, the end of one cycle makes way for the beginning of a new cycle. These worshippers track such transitions and work to properly dispose of those things that have outlived their usefulness, whether it's cleaning a cluttered closet or demolishing an old building. Yet, Kerkamoth opposes those who destroy with abandon and no greater purpose, which often brings them in conflict with daemons, demons, and proteans. Though they favor areas of emptiness and silence to commune with their patron, worshippers of Kerkamoth recognize that these too cannot last forever, inevitably to be filled with new creations.</p>\n<p><strong>Edicts</strong> Clean cluttered spaces, embrace moments of silence</p>\n<p><strong>Anathema</strong> Attempt to preserve something indefinitely, perform an act of wanton and significant destruction</p>\n<p><strong>Areas of Concern</strong> emptiness, entropy, and stillness</p>\n<p><strong>Follower Alignments</strong> LN, N</span></p>\n<h2 class=\"title\">Devotee Benefits</h2>\n<div>\n<div><strong>Divine Ability</strong> Constitution or Wisdom</div>\n<div><strong>Divine Font</strong> harm or heal</div>\n<div><strong>Divine Skill</strong> Occultism</div>\n<div><strong>Favored Weapon</strong> warhammer</div>\n<div><strong>Domains</strong> darkness, decay, destruction, void</div>\n<div><strong>Cleric Spells</strong> 1st: penumbral shroud, 5th: shadow siphon, 6th: disintegrate</div>\n</div>",
    "flags": {},
    "name": "Kerkamoth",
    "permission": {
        "default": 0
    }
}
