{
    "_id": "iMRXc519Uepf8yH3",
    "content": "<h1 class=\"title\">Magdh (The Three) [LN]</h1>\n<p class=\"title\"><span id=\"ctl00_MainContent_DetailedOutput\"><span id=\"ctl00_MainContent_DetailedOutput\">Magdh is the Eldest of foreknowledge, complexity, and triplets, and she is the greatest seer in the First World. Most often appearing as a woman with three faces set equidistantly around her head, Magdh looks across the skeins of fate into myriad alternate realities and possible futures. Among all the Eldest, she has the deepest knowledge of reality's true design and the ripples a single action or inaction can create throughout all of existence. Her communications are veiled in conditional language and oddly juxtaposed statements to an almost maddening degree, and thus she never communicates the prophetic truths she sees-so plain to her six eyes-in a straightforward way. Because of their shared knowledge of branching timelines, Shyka and Magdh can communicate more easily with each other about such topics, though the other Eldest are cautious around Magdh, lest a careless comment or errant gesture cause her to predict apocalyptic dooms.</p>\n<p><strong>Edicts</strong> Use divination</p>\n<p><strong>Anathema</strong> Lie, share your divinations without payment (no matter how trivial)</p>\n<p><strong>Areas of Concern</strong> foreknowledge, complexity, and triplets</p>\n<p><strong>Follower Alignments</strong> LN, N</span></p>\n<p></span></p>\n<h2 class=\"title\">Devotee Benefits</h2>\n<div>\n<div><strong>Divine Ability</strong> Intelligence or Wisdom</div>\n<div><strong>Divine Font</strong> harm or heal</div>\n<div><strong>Divine Skill</strong> Occultism</div>\n<div><strong>Favored Weapon</strong> scythe</div>\n<div><strong>Domains</strong> fate, glyph, knowledge, truth</div>\n<div><strong>Cleric Spells</strong> 1st: anticipate peril, 3rd: abyssal plague (threefold aspect (Advanced Player's Guide, coming soon)), 6th: scrying</div>\n</div>",
    "flags": {},
    "name": "Magdh",
    "permission": {
        "default": 0
    }
}
