{
    "_id": "1nQVLOyWv5kC0bCU",
    "content": "<h1 class=\"title\">Ravithra (The Mother of Nagas) [LN]</h1>\n<p>The Mother of Nagas, the Karmic Pillar, and the Chalice-Bearer of the danavas, Ravithra was decapitated and brought low by treachery. She grants boons only to mortal champions who seek to topple the treacherous and to restore her to her rightful role.</p>\n<p><strong>Edicts</strong> enforce karma's pitiless judgment, shame fools, kill traitors, pursue the Chalice of Amrit</p>\n<p><strong>Anathema</strong> make decisions erratically or randomly, provide aid to Vasaghati or her followers, engage in treachery</p>\n<p><strong>Follower Alignments</strong> LG, LN, LE, N</p>\n<h2 class=\"title\">Devotee Benefits</h2>\n<p><strong>Divine Font</strong> <em>@Compendium[pf2e.spells-srd.Harm]{Harm}</em></p>\n<p><strong>Divine Skill</strong> Occultism</p>\n<p><strong>Favored Weapon</strong> jaws or light mace</p>\n<p><strong>Domains</strong> fate, naga, sorrow, truth</p>\n<p><strong>Alternate Domains</strong> ambition, soul</p>\n<p><strong>Cleric Spells</strong> 1st: <em>@Compendium[pf2e.spells-srd.Charm]{Charm}</em>, 2nd: <em>@Compendium[pf2e.spells-srd.Animal Form]{Animal Form (snake only)}</em>, 4th: <em>@Compendium[pf2e.spells-srd.Clairvoyance]{Clairvoyance}</em></p>",
    "flags": {},
    "name": "Ravithra",
    "permission": {
        "default": 0
    }
}
