{
    "_id": "1xHnoMlCyCV70TnT",
    "content": "<h1 class=\"title\">Saloc (The Minder of Immortals) [N]</h1>\n<p class=\"title\"><span id=\"ctl00_MainContent_DetailedOutput\"><span id=\"ctl00_MainContent_DetailedOutput\">Ruler of the planar metropolis of Spire's Edge in the Boneyard, the psychopomp usher Saloc is humanoid, but their face is devoid of features save stag horns, and two golden rings lined with eyes constantly rotate about their body. As a defense counsel in Pharasma's court, the Minder of Immortals argues that a person's intentions should be considered in equal part to the consequences of their actions when deciding their soul's afterlife. Saloc has even been known to resurrect condemned souls to give them a second chance to prove themselves. Mortals revere Saloc as the patron of agency, bronze, and education. These followers are people who seek to improve themselves or others, including both students and teachers. Some seek to earn their freedom from earthly prisons, while others wish to change their ways to avoid punishment in the hereafter.</p>\n<p><strong>Edicts</strong> Help creatures grow and find purpose, offer second chances to failures, study different perspectives on ethics</p>\n<p><strong>Anathema</strong> Manipulate or remove a creature's emotions with magic, spread nihilism or hopelessness</p>\n<p><strong>Areas of Concern</strong> agency, bronze, and education</p>\n<p><strong>Follower Alignments</strong> NG, N, NE</span></p>\n<p></span></p>\n<h2 class=\"title\">Devotee Benefits</h2>\n<div>\n<div><strong>Divine Ability</strong> Wisdom or Charisma</div>\n<div><strong>Divine Font</strong> heal</div>\n<div><strong>Divine Skill</strong> Diplomacy</div>\n<div><strong>Favored Weapon</strong> guisarme</div>\n<div><strong>Domains</strong> change, death, freedom, knowledge</div>\n<div><strong>Cleric Spells</strong> 1st: share lore, 3rd: hypercognition, 5th: dreaming potential</div>\n</div>",
    "flags": {},
    "name": "Saloc",
    "permission": {
        "default": 0
    }
}
