{
    "_id": "DFxbPmQLOqcmbPTz",
    "content": "<h1 class=\"title\">Tanagaar (The Aurulent Eye) [LG]</h1>\n<p><span id=\"ctl00_MainContent_DetailedOutput\"><strong>Edicts</strong> Defend lawful borders, scout or patrol for evil, wait to strike until you have the advantage</p>\n<p><strong>Anathema</strong> Abandon your post, tolerate poaching, torment animals</p>\n<p><strong>Follower Alignments</strong> LG, LN</span></p>\n<h2 class=\"title\">Devotee Benefits</h2>\n<div>\n<div><strong>Divine Ability</strong> Strength or Wisdom</div>\n<div><strong>Divine Font</strong> heal</div>\n<div><strong>Divine Skill</strong> Stealth</div>\n<div><strong>Favored Weapon</strong> kukri</div>\n<div><strong>Domains</strong> darkness, duty, nature, zeal</div>\n<div><strong>Cleric Spells</strong> 1st: pass without trace, 3rd: animal vision, 4th: aerial form (bird only)</div>\n</div>",
    "flags": {},
    "name": "Tanagaar",
    "permission": {
        "default": 0
    }
}
