{
    "_id": "nuqIimigyt986WLE",
    "content": "<h1 class=\"title\">The Lantern King (The Laughing Lie) [CN]</h1>\n<p><span id=\"ctl00_MainContent_DetailedOutput\">Although the Lantern King most often appears as a floating ball of light surrounded by runes that form a delicate crown, the Eldest of laughter, mischief, and transformation has taken on a dizzying array of figures. He often adopts alternate shapes to play pranks, and even other Eldest are not immune to his mischievous scheming. Although he insists his pranks are intended only to incite levity and bring down imperious snobs, the chaos he creates in the name of good-natured fun is, to his targets, embarrassing at best and sometimes outright lethal. The Lantern King wanders the First World more than other Eldest, and he can be encountered in crowded markets and lonely byways alike. He is frequently accompanied by the Witchmarket, a traveling caravan of entertainers and merchants that serves as his court.</p>\n<p><strong>Edicts</strong> Play pranks, seek new jokes, leave lit lanterns in unusual places</p>\n<p><strong>Anathema</strong> Be completely honest, ruin or explain a good joke</p>\n<p><strong>Areas of Concern</strong> laughter, mischief, and transformation</p>\n<p><strong>Follower Alignments</strong> CN, CE</span></p>\n<h2 class=\"title\">Devotee Benefits</h2>\n<div>\n<div><strong>Divine Ability</strong> Intelligence or Charisma</div>\n<div><strong>Divine Font</strong> harm or heal</div>\n<div><strong>Divine Skill</strong> Deception</div>\n<div><strong>Favored Weapon</strong> dagger</div>\n<div><strong>Domains</strong> change, delirium, passion, trickery</div>\n<div><strong>Cleric Spells</strong> 1st: illusory disguise, 2nd: hideous laughter, 6th: baleful polymorph</div>\n</div>",
    "flags": {},
    "name": "The Lantern King",
    "permission": {
        "default": 0
    }
}
