{
    "_id": "7w8O3g3KM1HCDBSL",
    "data": {
        "actionCategory": {
            "value": ""
        },
        "actionType": {
            "value": "passive"
        },
        "actions": {
            "value": null
        },
        "description": {
            "value": "<p>You gain a +2 circumstance bonus to Perception checks attempted as initiative rolls. Additionally, if your initiative roll result is tied with that of an opponent, you go first, regardless of whether you rolled Perception or not.</p>"
        },
        "featType": {
            "value": "ancestry"
        },
        "level": {
            "value": 5
        },
        "location": "",
        "prerequisites": {
            "value": []
        },
        "rules": [
            {
                "key": "FlatModifier",
                "predicate": {
                    "all": [
                        "perception"
                    ]
                },
                "selector": "initiative",
                "type": "circumstance",
                "value": 2
            },
            {
                "key": "Note",
                "selector": "initiative",
                "text": "<p class='compact-text'><strong>{item|name}</strong> If your initiative roll result is tied with that of an opponent, you go first.</p>"
            }
        ],
        "source": {
            "value": "Pathfinder Lost Omens: The Mwangi Expanse"
        },
        "traits": {
            "custom": "",
            "rarity": {
                "value": "common"
            },
            "value": [
                "goloma"
            ]
        }
    },
    "effects": [],
    "flags": {},
    "img": "systems/pf2e/icons/default-icons/feats.webp",
    "name": "Ambush Awareness",
    "type": "feat"
}
