{
    "_id": "f4HG7vKj4WGxlqG2",
    "data": {
        "actionCategory": {
            "value": ""
        },
        "actionType": {
            "value": "action"
        },
        "actions": {
            "value": 1
        },
        "description": {
            "value": "<p>You've learned that in most cases, especially murders, criminals tend to leave more evidence of the crime on the body than they'd like to believe. Information from bruising, bone fractures, blood spatters, and even the life cycle of carrion insects can provide valuable clues that help reconstruct the scene.</p>\n<p>You're trained in Medicine and gain the @Compendium[pf2e.feats-srd.Forensic Acumen]{Forensic Acumen} and @Compendium[pf2e.feats-srd.Battle Medicine]{Battle Medicine} skill feats. When you use Battle Medicine, on a success the target recovers additional Hit Points equal to your level, and the target becomes temporarily immune for only 1 hour, not 1 day.</p>"
        },
        "featType": {
            "value": "skill"
        },
        "level": {
            "value": 1
        },
        "location": "",
        "prerequisites": {
            "value": [
                {
                    "value": "trained in Medicine"
                }
            ]
        },
        "rules": [],
        "source": {
            "value": ""
        },
        "traits": {
            "custom": "",
            "rarity": {
                "value": "common"
            },
            "selected": {
                "general": "General",
                "healing": "Healing",
                "manipulate": "Manipulate",
                "skill": "Skill"
            },
            "value": [
                "manipulate",
                "general",
                "skill",
                "healing"
            ]
        }
    },
    "effects": [],
    "flags": {},
    "img": "systems/pf2e/icons/features/feats/feats.webp",
    "name": "Battle Medicine (Forensic Medicine)",
    "type": "feat"
}
