{
    "_id": "gLfy6C5r10LNJJyy",
    "data": {
        "actionCategory": {
            "value": ""
        },
        "actionType": {
            "value": "passive"
        },
        "actions": {
            "value": null
        },
        "description": {
            "value": "<p>Your avoidance or observation is beyond the ken of most in your profession. You become an expert in Perception. At 17th level, you become a master in Perception.</p>"
        },
        "featType": {
            "value": "general"
        },
        "level": {
            "value": 1
        },
        "location": "",
        "prerequisites": {
            "value": []
        },
        "rules": [
            {
                "key": "ActiveEffectLike",
                "mode": "upgrade",
                "path": "data.attributes.perception.rank",
                "value": {
                    "brackets": [
                        {
                            "end": 16,
                            "start": 1,
                            "value": 2
                        },
                        {
                            "start": 17,
                            "value": 3
                        }
                    ]
                }
            }
        ],
        "source": {
            "value": ""
        },
        "traits": {
            "custom": "",
            "rarity": {
                "value": "common"
            },
            "value": [
                "general"
            ]
        }
    },
    "effects": [],
    "flags": {},
    "img": "systems/pf2e/icons/features/feats/feats.webp",
    "name": "Canny Acumen (Perception)",
    "type": "feat"
}
