{
    "_id": "xoIxiRtBVHV27Rvd",
    "data": {
        "actionCategory": {
            "value": ""
        },
        "actionType": {
            "value": "reaction"
        },
        "actions": {
            "value": null
        },
        "description": {
            "value": "<p><strong>Trigger</strong> You attempt a saving throw against a magical effect, but you haven't rolled yet.</p>\n<hr />\n<p>You summon divine energy to shield yourself, offering protection against other traditions but leaving you exposed to other divine effects.</p>\n<p>Until the beginning of your next turn, you gain a +1 circumstance bonus to saving throws against non-divine magical effects, but you also take a -1 circumstance penalty to saves against divine effects.</p>\n<p>@Compendium[pf2e.feat-effects.Effect: Divine Aegis]{Effect: Divine Aegis}</p>"
        },
        "featType": {
            "value": "class"
        },
        "level": {
            "value": 2
        },
        "location": "",
        "prerequisites": {
            "value": []
        },
        "rules": [],
        "source": {
            "value": "Pathfinder Advanced Player's Guide"
        },
        "traits": {
            "custom": "",
            "rarity": {
                "value": "common"
            },
            "value": [
                "abjuration",
                "divine",
                "oracle"
            ]
        }
    },
    "effects": [],
    "flags": {},
    "img": "systems/pf2e/icons/features/feats/feats.webp",
    "name": "Divine Aegis",
    "type": "feat"
}
