{
    "_id": "1fBHZpM3Z3MQtzvi",
    "data": {
        "actionCategory": {
            "value": ""
        },
        "actionType": {
            "value": "action"
        },
        "actions": {
            "value": 2
        },
        "description": {
            "value": "<p>You move to provide immediate care to those who need it. @Compendium[pf2e.actionspf2e.Stride]{Stride}, then use one of the following: @Compendium[pf2e.feats-srd.Battle Medicine]{Battle Medicine} or @Compendium[pf2e.actionspf2e.Treat Poison]{Treat Poison}. You can spend a second action to instead Stride and then @Compendium[pf2e.actionspf2e.Administer First Aid]{Administer First Aid} or @Compendium[pf2e.feats-srd.Treat Condition]{Treat a Condition}.</p>"
        },
        "featType": {
            "value": "archetype"
        },
        "level": {
            "value": 4
        },
        "prerequisites": {
            "value": [
                {
                    "value": "Medic Dedication"
                }
            ]
        },
        "rules": [],
        "source": {
            "value": "Pathfinder Advanced Player's Guide"
        },
        "traits": {
            "custom": "",
            "rarity": {
                "value": "common"
            },
            "value": [
                "archetype",
                "flourish"
            ]
        }
    },
    "effects": [],
    "flags": {},
    "img": "systems/pf2e/icons/features/feats/feats.webp",
    "name": "Doctor's Visitation",
    "type": "feat"
}
