{
    "_id": "d7DQhCJKYcLxpHen",
    "data": {
        "actionCategory": {
            "value": ""
        },
        "actionType": {
            "value": "action"
        },
        "actions": {
            "value": 1
        },
        "description": {
            "value": "<p><strong>Requirements</strong> You are in @Compendium[pf2e.feats-srd.Monastic Archer Stance]{Monastic Archer Stance}.</p>\n<hr />\n<p>You achieve a state of perfect calm before unleashing your attack, opening your mind to the minute movements of the world around you to increase your accuracy.</p>\n<p>Make a ranged weapon Strike against a target within your weapon's first range increment. This Strike ignores the target's @Compendium[pf2e.conditionitems.Concealed]{Concealed} condition and all cover.</p>"
        },
        "featType": {
            "value": "class"
        },
        "level": {
            "value": 12
        },
        "location": "",
        "prerequisites": {
            "value": [
                {
                    "value": "Monastic Archer Stance"
                }
            ]
        },
        "rules": [],
        "source": {
            "value": "Pathfinder Advanced Player's Guide"
        },
        "traits": {
            "custom": "",
            "rarity": {
                "value": "common"
            },
            "value": [
                "concentrate",
                "monk"
            ]
        }
    },
    "effects": [],
    "flags": {},
    "img": "systems/pf2e/icons/features/feats/feats.webp",
    "name": "Focused Shot",
    "type": "feat"
}
