{
    "_id": "B4nuabUvA1rk7Hej",
    "data": {
        "actionCategory": {
            "value": ""
        },
        "actionType": {
            "value": "passive"
        },
        "actions": {
            "value": null
        },
        "description": {
            "value": "<p>You use multiple languages to create and break codes. You gain a +1 circumstance bonus to @Compendium[pf2e.actionspf2e.Decipher Writing]{Decipher Writing}.</p>\n<p>If another creature attempts to Decipher Writing you encoded, they take a -2 circumstance penalty unless they speak all the languages you used when you created the writing.</p>"
        },
        "featType": {
            "value": "archetype"
        },
        "level": {
            "value": 4
        },
        "location": "",
        "prerequisites": {
            "value": [
                {
                    "value": "Linguist Dedication"
                },
                {
                    "value": "expert in Society"
                }
            ]
        },
        "rules": [
            {
                "key": "FlatModifier",
                "label": "to Decipher Writing (Multilingual Cipher)",
                "predicate": {
                    "all": [
                        "action:decipher-writing"
                    ]
                },
                "selector": "arcana",
                "type": "circumstance",
                "value": 1
            },
            {
                "key": "FlatModifier",
                "label": "to Decipher Writing (Multilingual Cipher)",
                "predicate": {
                    "all": [
                        "action:decipher-writing"
                    ]
                },
                "selector": "occultism",
                "type": "circumstance",
                "value": 1
            },
            {
                "key": "FlatModifier",
                "label": "to Decipher Writing (Multilingual Cipher)",
                "predicate": {
                    "all": [
                        "action:decipher-writing"
                    ]
                },
                "selector": "religion",
                "type": "circumstance",
                "value": 1
            },
            {
                "key": "FlatModifier",
                "label": "to Decipher Writing (Multilingual Cipher)",
                "predicate": {
                    "all": [
                        "action:decipher-writing"
                    ]
                },
                "selector": "society",
                "type": "circumstance",
                "value": 1
            }
        ],
        "source": {
            "value": "Pathfinder Advanced Player's Guide"
        },
        "traits": {
            "custom": "",
            "rarity": {
                "value": "common"
            },
            "value": [
                "archetype",
                "skill"
            ]
        }
    },
    "effects": [],
    "flags": {},
    "img": "systems/pf2e/icons/features/feats/feats.webp",
    "name": "Multilingual Cipher",
    "type": "feat"
}
