{
    "_id": "MRMW0EiuOO20pzG2",
    "data": {
        "actionCategory": {
            "value": ""
        },
        "actionType": {
            "value": "passive"
        },
        "actions": {
            "value": null
        },
        "description": {
            "value": "<p>Your powerful personality and incredible ego demand that you protect yourself above all else. After you use @Compendium[pf2e.actionspf2e.Selfish Shield]{Selfish Shield}, you gain resistance to all further damage from the triggering enemy until the end of the turn on which you used the reaction. This resistance is equal to half your Selfish Shield resistance.</p>"
        },
        "featType": {
            "value": "class"
        },
        "level": {
            "value": 1
        },
        "location": "",
        "prerequisites": {
            "value": [
                {
                    "value": "desecrator cause"
                }
            ]
        },
        "rules": [],
        "source": {
            "value": "Pathfinder Advanced Player's Guide"
        },
        "traits": {
            "custom": "",
            "rarity": {
                "value": "uncommon"
            },
            "value": [
                "champion"
            ]
        }
    },
    "effects": [],
    "flags": {},
    "img": "systems/pf2e/icons/features/feats/feats.webp",
    "name": "Ongoing Selfishness",
    "type": "feat"
}
