{
    "_id": "Yw0qVCDu94Y5TgxQ",
    "data": {
        "actionCategory": {
            "value": ""
        },
        "actionType": {
            "value": "passive"
        },
        "actions": {
            "value": null
        },
        "description": {
            "value": "<p>You somehow manage to have just the thing for the situation. You gain the @Compendium[pf2e.feats-srd.Prescient Planner]{Prescient Planner} and @Compendium[pf2e.feats-srd.Prescient Consumable]{Prescient Consumable} feats.</p>\n<p>When using Prescient Planner, you can draw the item from your backpack (or a similar container) as a 2-action activity, instead of taking 1 minute to do so.</p>"
        },
        "featType": {
            "value": "class"
        },
        "level": {
            "value": 8
        },
        "prerequisites": {
            "value": []
        },
        "rules": [],
        "source": {
            "value": "Pathfinder Advanced Player's Guide"
        },
        "traits": {
            "custom": "",
            "rarity": {
                "value": "common"
            },
            "value": [
                "rogue"
            ]
        }
    },
    "effects": [],
    "flags": {},
    "img": "systems/pf2e/icons/features/feats/feats.webp",
    "name": "Predictive Purchase (Rogue)",
    "type": "feat"
}
