{
    "_id": "pm9PS32YNLJ2wp4o",
    "data": {
        "actionCategory": {
            "value": ""
        },
        "actionType": {
            "value": "action"
        },
        "actions": {
            "value": 1
        },
        "description": {
            "value": "<p>Your mind works through clues at an unbelievable speed. You instantly use up to five @Compendium[pf2e.actionspf2e.Recall Knowledge (Arcana)]{Recall Knowledge} actions. If you have any special abilities or free actions that would normally be triggered when you Recall Knowledge, you can't use them for these actions.</p>"
        },
        "featType": {
            "value": "class"
        },
        "level": {
            "value": 12
        },
        "prerequisites": {
            "value": []
        },
        "rules": [],
        "source": {
            "value": "Pathfinder Advanced Player's Guide"
        },
        "traits": {
            "custom": "",
            "rarity": {
                "value": "common"
            },
            "value": [
                "investigator"
            ]
        }
    },
    "effects": [],
    "flags": {},
    "img": "systems/pf2e/icons/features/feats/feats.webp",
    "name": "Reason Rapidly",
    "type": "feat"
}
