{
    "_id": "22P7IFyhrF7Fbw8B",
    "data": {
        "actionCategory": {
            "value": ""
        },
        "actionType": {
            "value": "passive"
        },
        "actions": {
            "value": null
        },
        "description": {
            "value": "<p>Your talismans ward against foul magic. During your daily preparations, you can assemble a small pouch with bits of herbs, hair, sacred oils, and other ritual ingredients, which you give to one ally.</p>\n<p>The first time that day the ally attempts a saving throw against a spell or haunt, they gain a +1 circumstance bonus to the roll. This bonus increases to +2 if you're an expert in Occultism or +3 if you're legendary.</p>"
        },
        "featType": {
            "value": "skill"
        },
        "level": {
            "value": 1
        },
        "prerequisites": {
            "value": [
                {
                    "value": "trained in Occultism"
                }
            ]
        },
        "rules": [],
        "source": {
            "value": "Pathfinder Advanced Player's Guide"
        },
        "traits": {
            "custom": "",
            "rarity": {
                "value": "common"
            },
            "value": [
                "general",
                "skill"
            ]
        }
    },
    "effects": [],
    "flags": {},
    "img": "systems/pf2e/icons/features/feats/feats.webp",
    "name": "Root Magic",
    "type": "feat"
}
