{
    "_id": "C2PmqTxQgWGTHluf",
    "data": {
        "actionCategory": {
            "value": "interaction"
        },
        "actionType": {
            "value": "passive"
        },
        "actions": {
            "value": null
        },
        "description": {
            "value": "<p>You achieve a breakthrough in your exploration of magic. You gain @Compendium[pf2e.spells-srd.Humanoid Form]{Humanoid Form} and @Compendium[pf2e.spells-srd.Mirror Image]{Mirror Image} as 2nd-level arcane innate spells. You can cast each of these arcane innate spells once per day.</p>"
        },
        "featType": {
            "value": "ancestry"
        },
        "level": {
            "value": 9
        },
        "location": "",
        "prerequisites": {
            "value": [
                {
                    "value": "Studious Magic"
                }
            ]
        },
        "rules": [],
        "source": {
            "value": "Pathfinder Lost Omens: The Mwangi Expanse"
        },
        "traits": {
            "custom": "",
            "rarity": {
                "value": "common"
            },
            "value": [
                "anadi"
            ]
        }
    },
    "effects": [],
    "flags": {},
    "img": "systems/pf2e/icons/default-icons/feats.webp",
    "name": "Studious Adept",
    "type": "feat"
}
