{
    "_id": "vWtPxwND60EpxBAU",
    "data": {
        "actionCategory": {
            "value": ""
        },
        "actionType": {
            "value": "passive"
        },
        "actions": {
            "value": null
        },
        "description": {
            "value": "<p>You spend 1 minute making quick adjustments to someone's clothing and appearance, causing their words to carry more weight with an audience of your choice. While speaking to that audience, the target gains a +1 item bonus to Diplomacy and Performance checks. If you have master proficiency in Crafting, the bonus increases to +2; if you have legendary proficiency in Crafting, the bonus increases to +3. This bonus lasts until this ability is used on the target again, the situation they were prepared for ends, or they next change their outfit.</p>"
        },
        "featType": {
            "value": "skill"
        },
        "level": {
            "value": 2
        },
        "prerequisites": {
            "value": [
                {
                    "value": "expert in Crafting"
                }
            ]
        },
        "rules": [],
        "source": {
            "value": "Pathfinder #147: Tomorrow Must Burn"
        },
        "traits": {
            "custom": "",
            "rarity": {
                "value": "common"
            },
            "value": [
                "general",
                "skill"
            ]
        }
    },
    "effects": [],
    "flags": {},
    "img": "systems/pf2e/icons/features/feats/feats.webp",
    "name": "Tweak Appearances",
    "type": "feat"
}
