{
    "_id": "y9DNpX7krUiOq0YI",
    "data": {
        "actionCategory": {
            "value": ""
        },
        "actionType": {
            "value": "passive"
        },
        "actions": {
            "value": null
        },
        "description": {
            "value": "<p><strong>Moderate Curse</strong>: Asmodeus forces your compliance. You can't voluntarily back out of an agreement or contract or go back on your word, though you need follow only the letter of the agreement, not the spirit.</p>"
        },
        "featType": {
            "value": "curse"
        },
        "level": {
            "value": 0
        },
        "prerequisites": {
            "value": []
        },
        "rules": [],
        "source": {
            "value": ""
        },
        "traits": {
            "custom": "",
            "rarity": {
                "value": "common"
            },
            "selected": {},
            "value": []
        }
    },
    "effects": [],
    "flags": {},
    "img": "systems/pf2e/icons/deity/Asmodeus.webp",
    "name": "Asmodeus - Moderate Curse",
    "type": "feat"
}
