{
    "_id": "QGUFWuz9uF49EIhy",
    "data": {
        "actionCategory": {
            "value": ""
        },
        "actionType": {
            "value": "passive"
        },
        "actions": {
            "value": null
        },
        "description": {
            "value": "<p><strong>Major Curse</strong>: Cayden curses you to suffer in the presence of drinking, making it hard for you to bear entering any tavern.</p>\n<p>Whenever any creature drinks alcohol within 100 feet of you, you suffer all negative effects from the alcohol (but only the alcohol) instead. This doesn't apply if the creature gains any special effect from drinking alcohol.</p>"
        },
        "featType": {
            "value": "curse"
        },
        "level": {
            "value": 0
        },
        "prerequisites": {
            "value": []
        },
        "rules": [],
        "source": {
            "value": ""
        },
        "traits": {
            "custom": "",
            "rarity": {
                "value": "common"
            },
            "selected": {},
            "value": []
        }
    },
    "effects": [],
    "flags": {},
    "img": "systems/pf2e/icons/deity/Cayden%20Cailean.webp",
    "name": "Cayden Cailean - Major Curse",
    "type": "feat"
}
