{
    "_id": "KkDRRDuycXwKPa6n",
    "data": {
        "description": {
            "value": "<p>Granted by casting @Compendium[pf2e.spells-srd.Dinosaur Form]{Dinosaur Form}.</p>\n<p>You channel the primal forces of nature to transform into a Large animal battle form, specifically that of a powerful and terrifying dinosaur. You must have space to expand or the spell is lost.</p>\n<p>You can decide the specific type of animal, but this has no effect on the form's Size or statistics. While in this form, you gain the animal and dinosaur traits. You can Dismiss the spell.</p>\n<p>You gain the following statistics and abilities regardless of which battle form you choose:</p>\n<ul>\n<li>AC = 18 + your level. Ignore your armor's check penalty and Speed reduction.</li>\n<li>15 temporary Hit Points.</li>\n<li>Low-light vision and imprecise scent 30 feet.</li>\n<li>One or more unarmed melee attacks specific to the battle form you choose, which are the only attacks you can use. You're trained with them. Your attack modifier is +16, and your damage bonus is +9. These attacks are Strength based (for the purpose of the @Compendium[pf2e.conditionitems.Enfeebled]{Enfeebled} condition, for example). If your unarmed attack modifier is higher, you can use it instead.</li>\n<li>Athletics modifier of +18, unless your own modifier is higher.</li>\n</ul>\n<p>You also gain specific abilities based on the form you choose:</p>\n<ul>\n<li><strong>Brontosaurus</strong>\n<ul>\n<li>Speed 25 feet;</li>\n<li><strong>Melee</strong> <span class=\"pf2-icon\">1</span> tail (reach 15 feet), Damage 2d6 bludgeoning;</li>\n<li><strong>Melee</strong> <span class=\"pf2-icon\">1</span> foot, Damage 2d8 bludgeoning.</li>\n</ul>\n</li>\n</ul>\n<hr />\n<p><strong>Heightened (5th)</strong> Your battle form is Huge and your attacks have 15-foot reach, or 20-foot reach if they started with 15-foot reach. You instead gain 20 temporary HP, an attack modifier of +18, a damage bonus of +6, double the damage dice, and Athletics +21.</p>\n<p><strong>Heightened (7th)</strong> Your battle form is Gargantuan and your attacks have 20-foot reach, or 25-foot reach if they started with 15-foot reach. You instead gain AC = 21 + your level, 25 temporary HP, an attack modifier of +25, a damage bonus of +15, double the damage dice, and Athletics +25.</p>\n<hr />\n<p><em>Note: To heighten this effect, import it into your Item Directory and edit the level before adding it to the target</em></p>"
        },
        "duration": {
            "expiry": "turn-start",
            "sustained": false,
            "unit": "minutes",
            "value": 1
        },
        "level": {
            "value": 4
        },
        "rules": [
            {
                "key": "BattleForm",
                "overrides": {
                    "armorClass": {
                        "modifier": "18 + @details.level.value"
                    },
                    "senses": {
                        "lowLightVision": {},
                        "scent": {
                            "acuity": "imprecise",
                            "range": 30
                        }
                    },
                    "speeds": {
                        "land": 25
                    },
                    "strikes": {
                        "foot": {
                            "ability": "str",
                            "category": "unarmed",
                            "damage": {
                                "damageType": "bludgeoning",
                                "dice": 2,
                                "die": "d8"
                            },
                            "group": "brawling",
                            "traits": [
                                "unarmed"
                            ]
                        },
                        "tail": {
                            "ability": "str",
                            "category": "unarmed",
                            "damage": {
                                "damageType": "bludgeoning",
                                "dice": 2,
                                "die": "d6"
                            },
                            "group": "brawling",
                            "label": "Tail",
                            "traits": [
                                "unarmed",
                                "reach-15"
                            ]
                        }
                    },
                    "traits": [
                        "animal",
                        "dinosaur"
                    ]
                },
                "value": {
                    "brackets": [
                        {
                            "end": 4,
                            "start": 4,
                            "value": {
                                "size": "lg",
                                "skills": {
                                    "ath": {
                                        "modifier": 18
                                    }
                                },
                                "strikes": {
                                    "foot": {
                                        "damage": {
                                            "modifier": 9
                                        },
                                        "modifier": 16
                                    },
                                    "tail": {
                                        "damage": {
                                            "modifier": 9
                                        },
                                        "modifier": 16
                                    }
                                },
                                "tempHP": 15
                            }
                        },
                        {
                            "end": 6,
                            "start": 5,
                            "value": {
                                "size": "huge",
                                "skills": {
                                    "ath": {
                                        "modifier": 21
                                    }
                                },
                                "strikes": {
                                    "foot": {
                                        "damage": {
                                            "dice": 4,
                                            "modifier": 6
                                        },
                                        "modifier": 18,
                                        "traits": [
                                            "unarmed",
                                            "reach-15"
                                        ]
                                    },
                                    "tail": {
                                        "damage": {
                                            "dice": 4,
                                            "modifier": 6
                                        },
                                        "modifier": 18,
                                        "traits": [
                                            "unarmed",
                                            "reach-20"
                                        ]
                                    }
                                },
                                "tempHP": 20
                            }
                        },
                        {
                            "start": 7,
                            "value": {
                                "armorClass": {
                                    "modifier": "21 + @details.level.value"
                                },
                                "size": "grg",
                                "skills": {
                                    "ath": {
                                        "modifier": 25
                                    }
                                },
                                "strikes": {
                                    "foot": {
                                        "damage": {
                                            "dice": 4,
                                            "modifier": 15
                                        },
                                        "modifier": 25,
                                        "traits": [
                                            "unarmed",
                                            "reach-20"
                                        ]
                                    },
                                    "tail": {
                                        "damage": {
                                            "dice": 4,
                                            "modifier": 15
                                        },
                                        "modifier": 25,
                                        "traits": [
                                            "unarmed",
                                            "backswing",
                                            "reach-25"
                                        ]
                                    }
                                },
                                "tempHP": 25
                            }
                        }
                    ],
                    "field": "item|data.level.value"
                }
            }
        ],
        "source": {
            "value": ""
        },
        "start": {
            "initiative": null,
            "value": 0
        },
        "target": null,
        "tokenIcon": {
            "show": true
        },
        "traits": {
            "custom": "",
            "rarity": {
                "value": "common"
            },
            "value": []
        }
    },
    "effects": [],
    "flags": {},
    "img": "systems/pf2e/icons/spells/dinosaur-form.webp",
    "name": "Spell Effect: Dinosaur Form (Brontosaurus)",
    "type": "effect"
}
