{
    "_id": "lmAwCy7isFvLYdGd",
    "data": {
        "description": {
            "value": "<p>Drawing upon the deepest wells of magic in an elemental plane, you transform into a spectacular elemental. You can choose between an air elemental, earth elemental, fire elemental, or water elemental. Your battle form is Gargantuan, and you must have enough space to expand into or the spell is lost. While in this form, you gain the elemental trait and the trait for the element you choose. You can Dismiss the spell.</p>\n<p>You gain the following statistics and abilities regardless of which battle form you choose:</p>\n<ul>\n<li>AC = 25 + your level. Ignore your armor’s check penalty and Speed reduction.</li>\n<li>30 temporary Hit Points.</li>\n<li>Darkvision.</li>\n<li>One or more attacks specific to the battle form you choose, which are the only attacks you can use. You’re trained with them. Your attack modifier is +34, and you use the listed damage. These attacks are Dexterity based if you choose an air or fire elemental, or Strength based if you choose an earth or water elemental. (This distinction doesn’t change the statistics, but matters for the enfeebled and clumsy conditions, for example). If your unarmed attack modifier is higher, you can use it instead.</li>\n<li>Acrobatics modifier of +36 for air or fire elemental or Athletics modifier of +36 for earth or water elemental, unless your own modifier is higher.</li>\n</ul>\n<p>You also gain specific abilities based on the type of elemental you choose:</p>\n<ul>\n<li><strong>Fire Elemental</strong> 50 feet; immunity to fire; weakness to cold 10;\n<ul>\n<li><strong>Intense Heat</strong> (aura, fire) 30 feet. A creature that enters the aura or starts its turn in the aura takes 5d6 fire damage with a basic Reflex save against your spell DC. A creature can take damage from the aura only once per round;</li>\n<li><strong>Melee</strong> <span class=\"pf2-icon\">1</span> tendril (reach 25 feet), <strong>Damage</strong> 3d10+12 fire plus 2d6 persistent fire;</li>\n<li><strong>Ranged</strong> <span class=\"pf2-icon\">1</span> fire mote (range increment 60 feet), <strong>Damage</strong> 4d8+6 bludgeoning.</li>\n</ul>\n</li>\n</ul>"
        },
        "duration": {
            "expiry": "turn-start",
            "sustained": false,
            "unit": "minutes",
            "value": 1
        },
        "level": {
            "value": 1
        },
        "rules": [
            {
                "hasHands": true,
                "key": "BattleForm",
                "overrides": {
                    "armorClass": {
                        "modifier": "25 + @details.level.value"
                    },
                    "senses": {
                        "darkvision": {}
                    },
                    "size": "grg",
                    "skills": {
                        "acr": {
                            "modifier": 23
                        }
                    },
                    "speeds": {
                        "land": 50
                    },
                    "strikes": {
                        "fire-mote": {
                            "ability": "dex",
                            "category": "unarmed",
                            "damage": {
                                "damageType": "bludgeoning",
                                "dice": 4,
                                "die": "d8",
                                "modifier": 6
                            },
                            "group": "brawling",
                            "modifier": 34,
                            "traits": [
                                "range-increment-60"
                            ]
                        },
                        "tendril": {
                            "ability": "dex",
                            "category": "unarmed",
                            "damage": {
                                "damageType": "fire",
                                "dice": 3,
                                "die": "d12",
                                "modifier": 12
                            },
                            "group": "brawling",
                            "modifier": 34,
                            "traits": [
                                "unarmed",
                                "reach-25"
                            ]
                        }
                    },
                    "tempHP": 30,
                    "traits": [
                        "elemental",
                        "fire"
                    ]
                }
            },
            {
                "key": "Note",
                "selector": "tendril-damage",
                "text": "<p class='compact-text'><strong>Elemental Embodiment (fire)</strong>: plus [[/r 2d6 #persistent fire]]{2d6} @Compendium[pf2e.conditionitems.Persistent Damage]{Persistent fire Damage}</p>"
            }
        ],
        "source": {
            "value": ""
        },
        "start": {
            "initiative": null,
            "value": 0
        },
        "target": null,
        "tokenIcon": {
            "show": true
        },
        "traits": {
            "custom": "",
            "rarity": {
                "value": "common"
            },
            "value": []
        }
    },
    "effects": [],
    "flags": {},
    "img": "systems/pf2e/icons/spells/element-embodied.webp",
    "name": "Spell Effect: Element Embodied (Fire)",
    "type": "effect"
}
