{
    "_id": "TWR1wbPJuCLnGdFZ",
    "data": {
        "actionCategory": {
            "value": ""
        },
        "actionType": {
            "value": "passive"
        },
        "actions": {
            "value": null
        },
        "description": {
            "value": "<p>You have been blessed by a phoenix, perhaps via some magical interaction with a similarly blessed individual. Grant this new sorcerer bloodline to players who finish the Fists of the Ruby Phoenix Adventure Path. Players can then choose this bloodline for any new sorcerer characters they create for future campaigns.</p>\n<p><strong>Spell List</strong> primal</p>\n<p><strong>Bloodline Skills</strong> Diplomacy, Nature</p>\n<p><strong>Granted Spells</strong> cantrip: @Compendium[pf2e.spells-srd.Detect Magic]{Detect Magic}; 1st: @Compendium[pf2e.spells-srd.Burning Hands]{Burning Hands}; 2nd: @Compendium[pf2e.spells-srd.See Invisibility]{See Invisibility}; 3rd: @Compendium[pf2e.spells-srd.Fireball]{Fireball}; 4th: @Compendium[pf2e.spells-srd.Remove Curse]{Remove Curse}; 5th: @Compendium[pf2e.spells-srd.Breath of Life]{Breath of Life}; 6th: @Compendium[pf2e.spells-srd.Disintegrate]{Disintegrate}; 7th: @Compendium[pf2e.spells-srd.Contingency]{Contingency}; 8th: @Compendium[pf2e.spells-srd.Moment of Renewal]{Moment of Renewal}; 9th: @Compendium[pf2e.spells-srd.Meteor Swarm]{Meteor Swarm}</p>\n<p><strong>Bloodline Spells</strong> initial: @Compendium[pf2e.spells-srd.Rejuvenating Flames]{Rejuvenating Flames}; advanced: @Compendium[pf2e.spells-srd.Shroud of Flame]{Shroud of Flame}; greater: @Compendium[pf2e.spells-srd.Cleansing Flames]{Cleansing Flames}</p>\n<p><strong>Blood Magic</strong> The primal fire of life and death flows through you or one target. Choose to have either you or a target of the spell gain temporary Hit Points equal to the spell's level for 1 round, or to have a target of the spell take fire damage equal to the spell's level (if the spell already deals initial fire damage, combine this with the spell's initial damage before determining weaknesses and resistances).</p>"
        },
        "featType": {
            "value": "classfeature"
        },
        "level": {
            "value": 1
        },
        "location": "",
        "prerequisites": {
            "value": []
        },
        "rules": [
            {
                "key": "ActiveEffectLike",
                "mode": "upgrade",
                "path": "data.resources.focus.max",
                "priority": 10,
                "value": 1
            }
        ],
        "source": {
            "value": ""
        },
        "traits": {
            "custom": "",
            "rarity": {
                "value": "uncommon"
            },
            "value": [
                "sorcerer"
            ]
        }
    },
    "effects": [],
    "flags": {},
    "img": "systems/pf2e/icons/features/classes/phoenix.webp",
    "name": "Bloodline: Phoenix",
    "type": "feat"
}
