{
    "_id": "n7OgbKme4hNwxVwQ",
    "data": {
        "ability": {
            "value": ""
        },
        "area": {
            "areaType": "",
            "value": ""
        },
        "autoHeightenLevel": {
            "value": null
        },
        "category": {
            "value": "spell"
        },
        "components": {
            "focus": false,
            "material": false,
            "somatic": true,
            "verbal": true
        },
        "cost": {
            "value": ""
        },
        "damage": {
            "applyMod": false,
            "value": {
                "0": {
                    "applyMod": false,
                    "type": {
                        "subtype": "",
                        "value": "electricity"
                    },
                    "value": "3d12"
                }
            }
        },
        "description": {
            "value": "<p>Calling out to the skies, you summon a bolt of lightning to strike through a foe above you and down into your weapon or your body, charging it with electrical power. You must hold your weapon or an empty hand aloft as part of this spell's somatic component. When you do, a bolt of lightning descends from a storm cloud in the air above your and through the target, dealing 3d12 electricity damage with a basic Reflex save. For the rest of the spell's duration, your first Strike each round with the weapon you held aloft (or with your unarmed attacks if you held an empty hand aloft) deals an additional 1d12 electricity damage.</p>\n<p>The spell creates its own storm cloud if necessary, so you can cast <em>draw the lightning</em> anywhere, even underground. If <em>draw the lightning</em> is cast outside under a cloudy or stormy sky, increase the bolt's damage by [[/r 2d12 #electricity]].</p>\n<p>@Compendium[pf2e.spell-effects.Spell Effect: Draw the Lightning]{Spell Effect: Draw the Lightning}</p>\n<hr />\n<p><strong>Heightened (8th)</strong> The damage dealt to the initial target increases by 4d12, and the additional damage dealt on the first Strike each turn increases by 1d12.</p>"
        },
        "duration": {
            "value": "1 minute"
        },
        "hasCounteractCheck": {
            "value": false
        },
        "level": {
            "value": 4
        },
        "location": {
            "value": ""
        },
        "materials": {
            "value": ""
        },
        "prepared": {
            "value": ""
        },
        "range": {
            "value": "120 feet"
        },
        "rules": [],
        "save": {
            "basic": "basic",
            "value": "reflex"
        },
        "scaling": {
            "damage": {
                "0": "4d12"
            },
            "interval": 4
        },
        "school": {
            "value": "evocation"
        },
        "source": {
            "value": "Pathfinder Secrets of Magic"
        },
        "spellType": {
            "value": "save"
        },
        "sustained": {
            "value": false
        },
        "target": {
            "value": "1 creature that is either taller than you or higher than you"
        },
        "time": {
            "value": "2"
        },
        "traditions": {
            "custom": "",
            "value": [
                "arcane",
                "primal"
            ]
        },
        "traits": {
            "custom": "",
            "rarity": {
                "value": "common"
            },
            "value": [
                "electricity"
            ]
        }
    },
    "effects": [],
    "flags": {},
    "img": "systems/pf2e/icons/spells/draw-the-lightning.webp",
    "name": "Draw the Lightning",
    "type": "spell"
}
