{
    "_id": "K9gI08enGtmih5X1",
    "data": {
        "ability": {
            "value": ""
        },
        "area": {
            "areaType": "",
            "value": ""
        },
        "autoHeightenLevel": {
            "value": null
        },
        "category": {
            "value": "spell"
        },
        "components": {
            "focus": false,
            "material": false,
            "somatic": true,
            "verbal": true
        },
        "cost": {
            "value": ""
        },
        "damage": {
            "value": {}
        },
        "description": {
            "value": "<p>A Medium tree suddenly grows in an unoccupied square within range. The tree has AC 10 and 10 Hit Points. Whenever an ally adjacent to the tree is hit by a Strike, the tree interposes its branches and takes the damage first. Any additional damage beyond what it takes to reduce the tree to 0 Hit Points is dealt to the original target. The tree isn't large enough to impede movement through its square. If the tree is in soil and survives to the end of the spell's duration, it remains as an ordinary, non-magical tree, and continues to grow and thrive. The GM might determine that the tree disappears immediately in certain inhospitable situations.</p>\n<hr />\n<p><strong>Heightened (+1)</strong> The tree has an additional 10 Hit Points.</p>"
        },
        "duration": {
            "value": "1 minute"
        },
        "hasCounteractCheck": {
            "value": false
        },
        "level": {
            "value": 1
        },
        "location": {
            "value": ""
        },
        "materials": {
            "value": ""
        },
        "range": {
            "value": "30 feet"
        },
        "rules": [],
        "save": {
            "basic": "",
            "value": ""
        },
        "school": {
            "value": "conjuration"
        },
        "source": {
            "value": "Pathfinder Secrets of Magic"
        },
        "spellType": {
            "value": "utility"
        },
        "sustained": {
            "value": false
        },
        "target": {
            "value": ""
        },
        "time": {
            "value": "2"
        },
        "traditions": {
            "custom": "",
            "value": [
                "primal"
            ]
        },
        "traits": {
            "custom": "",
            "rarity": {
                "value": "common"
            },
            "value": [
                "plant"
            ]
        }
    },
    "effects": [],
    "flags": {},
    "img": "systems/pf2e/icons/spells/protector-tree.webp",
    "name": "Protector Tree",
    "type": "spell"
}
