{
    "_id": "66xBcxqzYcpbItBU",
    "data": {
        "ability": {
            "value": ""
        },
        "area": {
            "areaType": "",
            "value": ""
        },
        "autoHeightenLevel": {
            "value": null
        },
        "category": {
            "value": "ritual"
        },
        "components": {
            "focus": false,
            "material": false,
            "somatic": false,
            "verbal": false
        },
        "cost": {
            "value": "rare incense and offering worth a total of 10 gp x your level"
        },
        "damage": {
            "value": {}
        },
        "description": {
            "value": "<p>You delve inward, spending extensive time contemplating the purity of your own soul and the actions of your past. If you aren't truly penitent, the outcome is always a critical failure.</p>\n<hr />\n<p><strong>Critical Success</strong> You reconcile your misdeeds with your soul path, removing your <em>soulforged corruption</em>. The corruption flaw from your armament no longer affects you. Before your reconciliation is complete, you must perform a special quest or other task in accord with your soul path. If completed during downtime, this task should take no less than 1 week. For 1 month, you receive divine insight just before performing an act that would be anathema to your soul path.</p>\n<p><strong>Success</strong> As critical success, but you gain no special insight regarding its subsequent actions.</p>\n<p><strong>Failure</strong> You don't reconcile and must continue to meditate and redress your misdeeds. Any future purify soul path rituals for the same misdeeds cost half as much and gain a +4 circumstance bonus to the primary check.</p>\n<hr />\n<p><strong>Heightened (+1)</strong> Increase the maximum target level by 2 and the base cost by 10 gp.</p>"
        },
        "duration": {
            "value": ""
        },
        "hasCounteractCheck": {
            "value": false
        },
        "level": {
            "value": 2
        },
        "location": {
            "value": ""
        },
        "materials": {
            "value": ""
        },
        "primarycheck": {
            "value": "Religion (trained)"
        },
        "range": {
            "value": ""
        },
        "rules": [],
        "save": {
            "basic": "",
            "value": ""
        },
        "school": {
            "value": "abjuration"
        },
        "secondarycasters": {
            "value": ""
        },
        "secondarycheck": {
            "value": ""
        },
        "source": {
            "value": "Pathfinder Secrets of Magic"
        },
        "spellType": {
            "value": "attack"
        },
        "sustained": {
            "value": false
        },
        "target": {
            "value": ""
        },
        "time": {
            "value": "1 day"
        },
        "traditions": {
            "value": []
        },
        "traits": {
            "custom": "",
            "rarity": {
                "value": "uncommon"
            },
            "value": []
        }
    },
    "effects": [],
    "flags": {},
    "img": "systems/pf2e/icons/default-icons/spell.svg",
    "name": "Purify Soul Path",
    "type": "spell"
}
