{
    "_id": "n2eJEjA8pnOMiuCm",
    "data": {
        "actionCategory": {
            "value": ""
        },
        "actionType": {
            "value": "passive"
        },
        "actions": {
            "value": null
        },
        "description": {
            "value": "<p>Your family have been alchemists, engineers, and scientists for generations, on projects bringing smoke and fire to the field of battle. You gain fire resistance equal to half your level (minimum 1). You automatically succeed at the DC 5 flat check to target a @Compendium[pf2e.conditionitems.Concealed]{Concealed}creature if that creature is Concealed only by smoke.</p>"
        },
        "featType": {
            "value": "heritage"
        },
        "level": {
            "value": 1
        },
        "location": "",
        "prerequisites": {
            "value": []
        },
        "rules": [],
        "source": {
            "value": ""
        },
        "traits": {
            "custom": "",
            "rarity": {
                "value": "common"
            },
            "value": [
                "hobgoblin"
            ]
        }
    },
    "effects": [],
    "flags": {},
    "img": "systems/pf2e/icons/features/ancestry/smokeworker-hobgoblin.webp",
    "name": "Smokeworker Hobgoblin",
    "type": "feat"
}
