{
    "_id": "kXp8qRh5AgtD4Izi",
    "data": {
        "actionCategory": {
            "value": "interaction"
        },
        "actionType": {
            "value": "passive"
        },
        "actions": {
            "value": null
        },
        "description": {
            "value": "<p>You're a shaggy, dark-furred gnoll capable of making some truly uncanny sounds. You can cast the @Compendium[pf2e.spells-srd.Ghost Sound]{Ghost Sound} cantrip as an occult innate spell at will. A cantrip is heightened to a spell level equal to half your level rounded up. In addition, you gain a +1 circumstance bonus to checks to Impersonate and Create a Diversion when using only your voice.</p>"
        },
        "featType": {
            "value": "heritage"
        },
        "level": {
            "value": 1
        },
        "location": "",
        "prerequisites": {
            "value": []
        },
        "rules": [
            {
                "key": "FlatModifier",
                "label": "Witch Gnoll (voice bonus only)",
                "predicate": {
                    "all": [
                        "auditory"
                    ],
                    "any": [
                        "action:impersonate",
                        "action:create-a-diversion"
                    ]
                },
                "selector": "deception",
                "type": "circumstance",
                "value": 1
            }
        ],
        "source": {
            "value": ""
        },
        "traits": {
            "custom": "",
            "rarity": {
                "value": "common"
            },
            "value": [
                "gnoll",
                "heritage"
            ]
        }
    },
    "effects": [],
    "flags": {},
    "img": "systems/pf2e/icons/default-icons/feat.svg",
    "name": "Witch Gnoll",
    "type": "feat"
}
